{
    "categories": [
        {
            "value": "NonProfitAndSubsidizedServices",
            "name": "Organizaciones Sin Fines de Lucro."
        },
        {
            "value": "dressAndOrFootwear",
            "name": "Vestido y Calzado"
        },
        {
            "value": "equitmentForTheHome",
            "name": "Equipamiento para el hogar."
        },
        {
            "value": "financialAndNonFinancialGoodsAndServices",
            "name": "Bienes y servicios financieros y no financieros."
        },
        {
            "value": "goodsAndLuxuryServices",
            "name": "Bienes y servicios suntuarios."
        },
        {
            "value": "health",
            "name": "Salud."
        },
        {
            "value": "publicServices",
            "name": "Servicios públicos."
        },
        {
            "value": "transport",
            "name": "Transporte."
        },
        {
            "value": "feeding",
            "name": "Alimentación."
        },
        {
            "value": "entertaiment",
            "name": "Entretenimiento."
        },
        {
            "value": "education",
            "name": "Educación."
        }
    ]
}