{
    "cities": [
        {
            "name": "Caracas",
            "value": "Caracas"
        },
        {
            "name": "Maracaibo",
            "value": "Maracaibo"
        },
        {
            "name": "Valencia",
            "value": "Valencia"
        },
        {
            "name": "Barquisimeto",
            "value": "Barquisimeto"
        },
        {
            "name": "Maracay",
            "value": "Maracay"
        },
        {
            "name": "Ciudad Guayana",
            "value": "Ciudad Guayana"
        },
        {
            "name": "Barcelona",
            "value": "Barcelona"
        },
        {
            "name": "Maturín",
            "value": "Maturín"
        },
        {
            "name": "Ciudad Bolívar",
            "value": "Ciudad Bolívar"
        },
        {
            "name": "Cumaná",
            "value": "Cumaná"
        },
        {
            "name": "San Cristóbal",
            "value": "San Cristóbal"
        },
        {
            "name": "Barinas",
            "value": "Barinas"
        },
        {
            "name": "Cabimas",
            "value": "Cabimas"
        },
        {
            "name": "Punto Fijo",
            "value": "Punto Fijo"
        },
        {
            "name": "Puerto La Cruz",
            "value": "Puerto La Cruz"
        },
        {
            "name": "Guarenas",
            "value": "Guarenas"
        },
        {
            "name": "Los Teques",
            "value": "Los Teques"
        },
        {
            "name": "Mérida",
            "value": "Mérida"
        },
        {
            "name": "Ciudad Ojeda",
            "value": "Ciudad Ojeda"
        },
        {
            "name": "Guanare",
            "value": "Guanare"
        },
        {
            "name": "Turmero",
            "value": "Turmero"
        },
        {
            "name": "Coro",
            "value": "Coro"
        },
        {
            "name": "Guatire",
            "value": "Guatire"
        },
        {
            "name": "Puerto Cabello",
            "value": "Puerto Cabello"
        },
        {
            "name": "El Tigre",
            "value": "El Tigre"
        },
        {
            "name": "Acarigua",
            "value": "Acarigua"
        },
        {
            "name": "Carora",
            "value": "Carora"
        },
        {
            "name": "Tocuyito",
            "value": "Tocuyito"
        },
        {
            "name": "Guacara",
            "value": "Guacara"
        },
        {
            "name": "Santa Teresa del Tuy",
            "value": "Santa Teresa del Tuy"
        },
        {
            "name": "San Fernando de Apure",
            "value": "San Fernando de Apure"
        },
        {
            "name": "Carúpano",
            "value": "Carúpano"
        },
        {
            "name": "La Victoria",
            "value": "La Victoria"
        },
        {
            "name": "Cabudare",
            "value": "Cabudare"
        },
        {
            "name": "Güigüe",
            "value": "Güigüe"
        },
        {
            "name": "Villa de Cura",
            "value": "villaDeCura"
        },
        {
            "name": "Calabozo",
            "value": "Calabozo"
        },
        {
            "name": "Araure",
            "value": "Araure"
        },
        {
            "name": "Santa Bárbara del Zulia",
            "value": "Santa Bárbara del Zulia"
        },
        {
            "name": "Santa Rita",
            "value": "Santa Rita"
        },
        {
            "name": "Los Guayos",
            "value": "Los Guayos"
        },
        {
            "name": "Ocumare del Tuy",
            "value": "Ocumare del Tuy"
        },
        {
            "name": "Naguanagua",
            "value": "Naguanagua"
        },
        {
            "name": "Valera",
            "value": "Valera"
        },
        {
            "name": "El Vigía",
            "value": "El Vigía"
        },
        {
            "name": "Cúa",
            "value": "Cúa"
        },
        {
            "name": "Machiques",
            "value": "Machiques"
        },
        {
            "name": "El Tocuyo",
            "value": "El Tocuyo"
        },
        {
            "name": "San Juan de Los Morros",
            "value": "San Juan de Los Morros"
        },
        {
            "name": "Anaco",
            "value": "Anaco"
        },
        {
            "name": "Valle de la Pascua",
            "value": "Valle de la Pascua"
        },
        {
            "name": "Guasdualito",
            "value": "Guasdualito"
        },
        {
            "name": "Zaraza",
            "value": "Zaraza"
        },
        {
            "name": "Santa Lucía",
            "value": "Santa Lucía"
        },
        {
            "name": "Cagua",
            "value": "Cagua"
        },
        {
            "name": "Táriba",
            "value": "Táriba"
        },
        {
            "name": "Mariara",
            "value": "Mariara"
        },
        {
            "name": "La Concepción",
            "value": "La Concepción"
        },
        {
            "name": "Upata",
            "value": "Upata"
        },
        {
            "name": "Ejido",
            "value": "Ejido"
        },
        {
            "name": "Cagua",
            "value": "Cagua"
        },
        {
            "name": "San Felipe",
            "value": "San Felipe"
        },
        {
            "name": "Tovar",
            "value": "Tovar"
        },
        {
            "name": "Quíbor",
            "value": "Quíbor"
        },
        {
            "name": "San Carlos",
            "value": "San Carlos"
        },
        {
            "name": "Tinaquillo",
            "value": "Tinaquillo"
        },
        {
            "name": "Charallave",
            "value": "Charallave"
        },
        {
            "name": "Puerto Ayacucho",
            "value": "Puerto Ayacucho"
        },
        {
            "name": "El Limón",
            "value": "El Limón"
        },
        {
            "name": "Caicara del Orinoco",
            "value": "Caicara del Orinoco"
        },
        {
            "name": "Yaritagua",
            "value": "Yaritagua"
        },
        {
            "name": "Tucupita",
            "value": "Tucupita"
        },
        {
            "name": "Porlamar",
            "value": "Porlamar"
        },
        {
            "name": "Los Puertos de Altagracia",
            "value": "Los Puertos de Altagracia"
        }
    ]
}