<svg xmlns="http://www.w3.org/2000/svg" xmlns:xlink="http://www.w3.org/1999/xlink" id="Layer_1" data-name="Layer 1" viewBox="0 0 258.54 283.46">
<defs>
    <style>
    #Layer_1{width: auto; height: auto}
    .cls-1,.cls-3{fill:#fff;}.cls-1{stroke:#a7a9ac;stroke-miterlimit:10;stroke-width:0.5px;}.cls-2{fill:#7f78ff;}.cls-4{fill:url(#linear-gradient);}.cls-5{fill:url(#linear-gradient-2);}.cls-6{fill:url(#linear-gradient-3);}.cls-7{fill:none;}.cls-8{fill:#2b2d6a;}.cls-9{fill:url(#linear-gradient-4);}.cls-10{fill:url(#linear-gradient-5);}.cls-11{fill:url(#linear-gradient-6);}</style>
    <linearGradient id="linear-gradient" x1="-671.51" y1="2499.49" x2="-670.25" y2="2481.47" gradientTransform="matrix(0.58, 0.81, -0.81, 0.58, 2608.45, -784.08)" gradientUnits="userSpaceOnUse">
        <stop offset="0" stop-color="#1d1f4a"/>
        <stop offset="1" stop-color="#7f78ff"/>
    </linearGradient>
    <linearGradient id="linear-gradient-2" x1="416.44" y1="1181.17" x2="417.21" y2="1163.14" gradientTransform="matrix(0.58, 0.85, -0.81, 0.6, 899.92, -945.08)" gradientUnits="userSpaceOnUse">
        <stop offset="0" stop-color="#1d1f4a"/>
        <stop offset="1" stop-color="#95fad8"/>
    </linearGradient>
    <linearGradient id="linear-gradient-3" x1="419.72" y1="1017.13" x2="419.72" y2="1001.53" gradientTransform="translate(612 1121.56) rotate(180)" gradientUnits="userSpaceOnUse">
        <stop offset="0" stop-color="#1d1f4a"/>
        <stop offset="1" stop-color="#2b2d6b"/>
    </linearGradient>
    <linearGradient id="linear-gradient-4" x1="-762.37" y1="2376.47" x2="-761.11" y2="2358.45" gradientTransform="matrix(0.58, 0.81, -0.81, 0.58, 2435.7, -590.82)" xlink:href="#linear-gradient"/>
    <linearGradient id="linear-gradient-5" x1="310.67" y1="1078.81" x2="311.44" y2="1060.78" gradientTransform="matrix(0.58, 0.85, -0.81, 0.6, 759.57, -742.53)" xlink:href="#linear-gradient-2"/>
    <linearGradient id="linear-gradient-6" x1="419.72" y1="864.2" x2="419.72" y2="848.59" gradientTransform="translate(-353.46 -685.16)" xlink:href="#linear-gradient-3"/>
</defs>
<title>tarjeta</title>
<rect class="cls-1" width="258.54" height="141.73" transform="translate(258.54 141.73) rotate(180)"/>
<rect class="cls-3" x="178.29" y="102.13" width="23.34" height="23.34" rx="5.11" ry="5.11" transform="translate(379.93 227.61) rotate(180)"/>
<rect class="cls-4" x="183.18" y="112.16" width="17.67" height="11.32" rx="3.17" ry="3.17" transform="translate(411.04 170.53) rotate(161.99)"/>
<rect class="cls-5" x="179.71" y="110.26" width="17.67" height="11.77" rx="3.23" ry="3.23" transform="matrix(-0.99, 0.14, -0.14, -0.99, 391.72, 204.22)"/>
<path class="cls-6" d="M182.92,117.84V107.76a5.65,5.65,0,0,1,5.65-5.65h8a5.1,5.1,0,0,1,5.1,5.11v13h0a1.51,1.51,0,0,1-.3,0H185.27a2.35,2.35,0,0,1-2.28-1.78A2.62,2.62,0,0,1,182.92,117.84Z"/>
<path class="cls-3" d="M185.79,120.65h15.49l.36,0v-.92a2.2,2.2,0,0,1-.36,0H185.79a2,2,0,0,1-2-2v-.09h-.91v.09A2.87,2.87,0,0,0,185.79,120.65Z"/>
<path class="cls-7" d="M178.32,120.33V107.22a5.11,5.11,0,0,1,5.11-5.11h13.11a5.1,5.1,0,0,1,5.1,5.11v13.31a.31.31,0,0,0,0,.1,5.1,5.1,0,0,1-5.09,4.8H183.43A5.11,5.11,0,0,1,178.32,120.33Z"/>
<path class="cls-3" d="M182.92,112.77h0v5h4.82a4.3,4.3,0,0,0,.62,0,4.94,4.94,0,0,0,1.67-.53,4.88,4.88,0,0,0,2.55-5.08,4.69,4.69,0,0,0-1-2.29,5,5,0,0,0-2.17-1.54,5.56,5.56,0,0,0-1.94-.32h-1.16c-.2,0-.21,0-.21-.21a.77.77,0,0,1,1.44-.4c0,.05,0,.06.1,0l.61-.31,1.89-1c.06,0,.06,0,0-.1a4,4,0,0,0-.6-.57,4.13,4.13,0,0,0-2.75-.87,3.82,3.82,0,0,0-1.07.2,4.06,4.06,0,0,0-2.7,2.77,1.79,1.79,0,0,0-.09.4c0,.18,0,.36,0,.55Zm4.83-1.58a1.64,1.64,0,1,1-1.65,1.64A1.64,1.64,0,0,1,187.75,111.19Z"/>
<polygon class="cls-8" points="167.39 97.78 169.03 92.83 170.66 97.76 173.93 97.76 170.64 87.83 171.9 84.55 168.63 84.55 167.37 87.83 165.75 92.84 164.12 97.76 164.11 97.78 167.39 97.78"/>
<rect class="cls-8" x="176.27" y="87.87" width="3.27" height="13.22"/>
<path class="cls-8" d="M191.77,92.83a5,5,0,0,0-5-5h-5v9.92h5A5,5,0,0,0,191.77,92.83Zm-6.66,0a1.66,1.66,0,1,1,1.66,1.65A1.66,1.66,0,0,1,185.11,92.83Z"/>
<path class="cls-8" d="M197.33,92.81A1.65,1.65,0,0,1,199,91.16h0a1.65,1.65,0,0,1,1.65,1.65v5H204v-5a5,5,0,0,0-9.94,0v5h3.32Z"/>
<path class="cls-8" d="M211.11,97.78a5,5,0,0,0,5-5.13,4.87,4.87,0,0,0-1.58-3.41,5.19,5.19,0,0,0-3.38-1.37h-1.65a.77.77,0,0,1,1.45-.53h0L213.59,86a4.25,4.25,0,0,0-2-1.34,4.11,4.11,0,0,0-1.27-.19,4.18,4.18,0,0,0-4.11,3.37s0,1.58,0,1.58v8.38Zm-1.65-5.06a1.64,1.64,0,0,1,1.65-1.54,1.62,1.62,0,0,1,1.5,1,1.51,1.51,0,0,1,.15.68,1.66,1.66,0,0,1-3.31,0A.41.41,0,0,1,209.46,92.72Z"/>
<rect class="cls-7" x="16.53" y="17.66" width="104.24" height="104.24"/>
<rect class="cls-1" y="141.73" width="258.54" height="141.73"/>
<rect class="cls-3" x="56.91" y="157.99" width="23.34" height="23.34" rx="5.11" ry="5.11"/>
<rect class="cls-9" x="57.7" y="159.98" width="17.67" height="11.32" rx="3.17" ry="3.17" transform="translate(-47.94 28.68) rotate(-18.01)"/>
<rect class="cls-10" x="61.17" y="161.43" width="17.67" height="11.77" rx="3.23" ry="3.23" transform="translate(-23.14 11.69) rotate(-8.2)"/>
<path class="cls-11" d="M75.62,165.62V175.7A5.65,5.65,0,0,1,70,181.35H62a5.1,5.1,0,0,1-5.11-5.1v-13h0l.29,0H73.27a2.35,2.35,0,0,1,2.28,1.78A2.12,2.12,0,0,1,75.62,165.62Z"/>
<path class="cls-3" d="M72.76,162.82H57.26a2,2,0,0,0-.35,0v.91a2,2,0,0,1,.35,0h15.5a2,2,0,0,1,2,2v.1h.9v-.1A2.86,2.86,0,0,0,72.76,162.82Z"/>
<path class="cls-7" d="M80.22,163.14v13.11a5.1,5.1,0,0,1-5.1,5.1H62a5.1,5.1,0,0,1-5.11-5.1V163.14c0-.07,0-.14,0-.2v-.1A5.12,5.12,0,0,1,62,158H75.12A5.11,5.11,0,0,1,80.22,163.14Z"/>
<path class="cls-3" d="M75.62,170.69h0c0-.8,0-1.61,0-2.41s0-1.62,0-2.43v-.11H70.8c-.21,0-.42,0-.62,0a5.1,5.1,0,0,0-1.67.53,4.89,4.89,0,0,0-2.08,2.12,4.84,4.84,0,0,0,.55,5.25,5,5,0,0,0,2.18,1.54,5.3,5.3,0,0,0,1.93.33h1.16c.2,0,.21,0,.22.21a.78.78,0,0,1-.57.76.75.75,0,0,1-.87-.37s-.06-.06-.11,0l-.61.31-1.88,1c-.07,0-.07,0,0,.09A4.53,4.53,0,0,0,69,178a4.06,4.06,0,0,0,2.76.87,3.54,3.54,0,0,0,1.07-.19,4.12,4.12,0,0,0,2.7-2.77,1.35,1.35,0,0,0,.08-.4c0-.18,0-.37,0-.55Zm-4.82,1.58a1.64,1.64,0,1,1,1.64-1.64A1.63,1.63,0,0,1,70.8,172.27Z"/>
<polygon class="cls-8" points="91.16 185.68 89.52 190.63 87.89 185.7 84.61 185.7 87.9 195.64 86.64 198.92 89.92 198.92 91.18 195.64 92.79 190.63 94.42 185.7 94.43 185.68 91.16 185.68"/>
<rect class="cls-8" x="79" y="182.38" width="3.27" height="13.22"/>
<path class="cls-8" d="M66.77,190.64a5,5,0,0,0,5,5h5v-9.91h-5A5,5,0,0,0,66.77,190.64Zm6.66,0A1.66,1.66,0,1,1,71.78,189,1.65,1.65,0,0,1,73.43,190.63Z"/>
<path class="cls-8" d="M61.22,190.65a1.65,1.65,0,0,1-1.66,1.65h0a1.65,1.65,0,0,1-1.65-1.65v-5H54.6v5a5,5,0,0,0,9.93,0v-5H61.22Z"/>
<path class="cls-8" d="M47.44,185.68a5,5,0,0,0-5,5.13,4.82,4.82,0,0,0,1.57,3.41,5.16,5.16,0,0,0,3.39,1.37h1.65a.85.85,0,0,1,0,.23.78.78,0,0,1-.77.77.77.77,0,0,1-.71-.47h0L45,197.49a4.18,4.18,0,0,0,2,1.33,4.05,4.05,0,0,0,1.26.2,4.2,4.2,0,0,0,4.12-3.37v-10Zm1.65,5.06a1.66,1.66,0,0,1-3.16.58,1.73,1.73,0,0,1-.15-.68,1.66,1.66,0,0,1,3.31,0Z"/>
<rect class="cls-7" x="137.78" y="161.57" width="104.24" height="104.24" transform="translate(379.79 427.38) rotate(180)"/>
</svg>
