<svg xmlns="http://www.w3.org/2000/svg" xmlns:xlink="http://www.w3.org/1999/xlink" id="Layer_1" data-name="Layer 1" viewBox="0 0 792 612">
<defs>
    <style>
.cls-1, .cls-33{
    fill:none;
}
.cls-2{
    fill:#95fad8;
}
.cls-3{
    clip-path:url(#clip-path);
}
.cls-4{
    fill:url(#linear-gradient);
}
.cls-5{
    fill:url(#linear-gradient-2);
}
.cls-6{
    fill:url(#linear-gradient-3);
}
.cls-7{
    fill:url(#linear-gradient-4);
}
.cls-8{
    fill:#2a2c6a;
}
.cls-9{
    clip-path:url(#clip-path-2);
}
.cls-10{
    fill:url(#linear-gradient-5);
}
.cls-11{
    fill:url(#linear-gradient-6);
}
.cls-12{
    fill:url(#linear-gradient-7);
}
.cls-13{
    fill:url(#linear-gradient-8);
}
.cls-14{
    fill:#7f78ff;
}
.cls-15,.cls-16{
    fill:#6dfdd6;
}
.cls-15,.cls-22{
    opacity:0.3;
}
.cls-17{
    fill:#fff;
}
.cls-18{
    fill:url(#linear-gradient-9);
}
.cls-19{
    fill:url(#linear-gradient-10);
}
.cls-20{
    fill:url(#linear-gradient-11);
}
.cls-21{
    fill:#2b2d6a;
}
.cls-22,.cls-23{
    fill:#2b2d6b;
}
.cls-24{
    fill:url(#linear-gradient-12);
}
.cls-25{
    fill:url(#linear-gradient-13);
}
.cls-26{
    fill:url(#linear-gradient-14);
}
.cls-27{
    fill:url(#linear-gradient-15);
}
.cls-28{
    fill:url(#linear-gradient-16);
}
.cls-29{
    fill:url(#linear-gradient-17);
}
.cls-30{
    fill:url(#linear-gradient-18);
}
.cls-31{
    fill:url(#linear-gradient-19);
}
.cls-32{
    fill:url(#linear-gradient-20);
}
.cls-33{
    stroke:#e6e7e8;
    stroke-miterlimit:10;
}
    </style>
    <clipPath id="clip-path">
        <rect class="cls-1" x="252" y="0.46" width="252.24" height="467.47"/>
    </clipPath>
    <linearGradient id="linear-gradient" x1="442.91" y1="487.73" x2="707.2" y2="487.73" gradientTransform="translate(-337.74 540.86) rotate(-74.49)" gradientUnits="userSpaceOnUse">
        <stop offset="0" stop-color="#6fd9b5"/>
        <stop offset="0.06" stop-color="#72dcb8" stop-opacity="0.92"/>
        <stop offset="0.32" stop-color="#7ee6c3" stop-opacity="0.6"/>
        <stop offset="0.55" stop-color="#88efcc" stop-opacity="0.34"/>
        <stop offset="0.75" stop-color="#8ff5d3" stop-opacity="0.16"/>
        <stop offset="0.9" stop-color="#93f9d7" stop-opacity="0.04"/>
        <stop offset="1" stop-color="#95fad8" stop-opacity="0"/>
    </linearGradient>
    <linearGradient id="linear-gradient-2" x1="471.81" y1="777.92" x2="680.31" y2="777.92" gradientTransform="translate(-366.96 518.73) rotate(-81.43)" xlink:href="#linear-gradient"/>
    <linearGradient id="linear-gradient-3" x1="569.73" y1="717.77" x2="311.68" y2="775.12" gradientTransform="translate(1301.75 584.46) rotate(140.9)" xlink:href="#linear-gradient"/>
    <linearGradient id="linear-gradient-4" x1="468.58" y1="461.67" x2="194.81" y2="560.21" gradientTransform="translate(-344.12 360.07) rotate(-55.22)" xlink:href="#linear-gradient"/>
    <clipPath id="clip-path-2">
        <path class="cls-1" d="M362.8,360H504.24a0,0,0,0,1,0,0V612.24a0,0,0,0,1,0,0H252a0,0,0,0,1,0,0V470.8A110.8,110.8,0,0,1,362.8,360Z"/>
    </clipPath>
    <linearGradient id="linear-gradient-5" x1="180.42" y1="435.07" x2="367.1" y2="435.07" gradientTransform="matrix(-0.18, -0.98, 0.98, -0.18, -67.54, 777.66)" gradientUnits="userSpaceOnUse">
        <stop offset="0" stop-color="#1d1f4a"/>
        <stop offset="0" stop-color="#1e204b" stop-opacity="0.99"/>
        <stop offset="0.44" stop-color="#524fad" stop-opacity="0.46"/>
        <stop offset="0.79" stop-color="#736de9" stop-opacity="0.12"/>
        <stop offset="1" stop-color="#7f78ff" stop-opacity="0"/>
    </linearGradient>
    <linearGradient id="linear-gradient-6" x1="183.46" y1="572.93" x2="330.73" y2="572.93" gradientTransform="translate(69.88 918.86) rotate(-118.22)" xlink:href="#linear-gradient-5"/>
    <linearGradient id="linear-gradient-7" x1="229.1" y1="564.58" x2="46.83" y2="605.09" gradientTransform="translate(176.47 1049.06) rotate(-137.47)" gradientUnits="userSpaceOnUse">
        <stop offset="0" stop-color="#1d1f4a" stop-opacity="0.7"/>
        <stop offset="0.31" stop-color="#343474" stop-opacity="0.54"/>
        <stop offset="0.88" stop-color="#716be5" stop-opacity="0.1"/>
        <stop offset="1" stop-color="#7f78ff" stop-opacity="0"/>
    </linearGradient>
    <linearGradient id="linear-gradient-8" x1="212.17" y1="357.8" x2="18.79" y2="427.4" gradientTransform="matrix(-0.18, -0.98, 0.98, -0.18, -67.54, 777.66)" gradientUnits="userSpaceOnUse">
        <stop offset="0" stop-color="#1d1f4a" stop-opacity="0.7"/>
        <stop offset="0.27" stop-color="#3f3e8a" stop-opacity="0.45"/>
        <stop offset="0.72" stop-color="#6e68df" stop-opacity="0.12"/>
        <stop offset="1" stop-color="#7f78ff" stop-opacity="0"/>
    </linearGradient>
    <linearGradient id="linear-gradient-9" x1="-523.91" y1="3467.18" x2="-520.21" y2="3414.17" gradientTransform="translate(3478.57 -1147.89) rotate(54.46)" gradientUnits="userSpaceOnUse">
        <stop offset="0" stop-color="#1d1f4a"/>
        <stop offset="1" stop-color="#7f78ff"/>
    </linearGradient>
    <linearGradient id="linear-gradient-10" x1="809.19" y1="2527.39" x2="811.44" y2="2474.35" gradientTransform="matrix(0.58, 0.85, -0.81, 0.6, 1949.33, -1764.86)" gradientUnits="userSpaceOnUse">
        <stop offset="0" stop-color="#1d1f4a"/>
        <stop offset="1" stop-color="#95fad8"/>
    </linearGradient>
    <linearGradient id="linear-gradient-11" x1="374.69" y1="466.92" x2="374.69" y2="421" gradientUnits="userSpaceOnUse">
        <stop offset="0" stop-color="#1d1f4a"/>
        <stop offset="1" stop-color="#2b2d6b"/>
    </linearGradient>
    <linearGradient id="linear-gradient-12" x1="-686.37" y1="3664.41" x2="-684.29" y2="3634.61" gradientTransform="translate(3488 -1065.46) rotate(54.46)" xlink:href="#linear-gradient-9"/>
    <linearGradient id="linear-gradient-13" x1="678.76" y1="2750.31" x2="680.03" y2="2720.49" gradientTransform="matrix(0.58, 0.85, -0.81, 0.6, 1956.48, -1727.12)" xlink:href="#linear-gradient-10"/>
    <linearGradient id="linear-gradient-14" x1="119.64" y1="520.63" x2="119.64" y2="494.81" xlink:href="#linear-gradient-11"/>
    <linearGradient id="linear-gradient-15" x1="-280.7" y1="3363.81" x2="-278.62" y2="3334.01" gradientTransform="matrix(0.58, 0.81, -0.81, 0.58, 3512.49, -1221.57)" xlink:href="#linear-gradient-9"/>
    <linearGradient id="linear-gradient-16" x1="1025.06" y1="2383.39" x2="1026.32" y2="2353.57" gradientTransform="matrix(0.58, 0.85, -0.81, 0.6, 1961.53, -1799.1)" xlink:href="#linear-gradient-10"/>
    <linearGradient id="linear-gradient-17" x1="624.54" y1="519.85" x2="624.54" y2="494.03" xlink:href="#linear-gradient-11"/>
    <linearGradient id="linear-gradient-18" x1="-749.05" y1="3142.82" x2="-746.97" y2="3113.02" gradientTransform="translate(3359.51 -1168.04) rotate(54.46)" xlink:href="#linear-gradient-9"/>
    <linearGradient id="linear-gradient-19" x1="541.08" y1="2256.28" x2="542.35" y2="2226.46" gradientTransform="matrix(0.58, 0.85, -0.81, 0.6, 1894.02, -1768.77)" xlink:href="#linear-gradient-10"/>
    <linearGradient id="linear-gradient-20" x1="379.12" y1="63.84" x2="379.12" y2="38.02" xlink:href="#linear-gradient-11"/>
</defs>
<title>triangulo-vertical</title>
<rect class="cls-2" x="252.69" width="252" height="612"/>
<g class="cls-3">
    <circle class="cls-4" cx="285.99" cy="117.16" r="132.15"/>
    <circle class="cls-5" cx="488.08" cy="64.97" r="104.25"/>
    <circle class="cls-6" cx="488.98" cy="283.12" r="132.15"/>
    <circle class="cls-7" cx="264.75" cy="379.13" r="145.45"/>
</g>
<path class="cls-8" d="M362.33,360H504.48a0,0,0,0,1,0,0V612a0,0,0,0,1,0,0h-252a0,0,0,0,1,0,0V469.86A109.86,109.86,0,0,1,362.33,360Z"/>
<g class="cls-9">
    <circle class="cls-10" cx="312.15" cy="431.16" r="93.34"/>
    <circle class="cls-11" cx="453.17" cy="421.42" r="73.64"/>
    <circle class="cls-12" cx="470.13" cy="524.82" r="93.34"/>
    <circle class="cls-13" cx="298.39" cy="594.45" r="102.74"/>
</g>
<path class="cls-14" d="M285.32,112.45v2.36h-7.65v3.49h6.86v2.36h-6.86v3.56h7.89v2.36H275V112.45Z"/>
<path class="cls-14" d="M291,112.45v11.68h6.1v2.45H288.3V112.45Z"/>
<path class="cls-14" d="M308.41,112.45l4.44,9.06,4.42-9.06h3.11v14.13h-2.46l0-10.1-4.18,8.64H312l-4.17-8.64v10.1h-2.51V112.45Z"/>
<path class="cls-14" d="M334.23,112.45v2.36h-7.65v3.49h6.86v2.36h-6.86v3.56h7.89v2.36H323.88V112.45Z"/>
<path class="cls-14" d="M339.78,126.7a5.5,5.5,0,0,1-4.36-2.12l1.28-2a4.33,4.33,0,0,0,3,1.57,1.79,1.79,0,0,0,1.88-2v-7.23h-4.86v-2.4h7.59v9.69A4.18,4.18,0,0,1,339.78,126.7Z"/>
<path class="cls-14" d="M361.45,119.51a7.54,7.54,0,1,1-7.53-7.14A7.25,7.25,0,0,1,361.45,119.51Zm-12.3,0a4.8,4.8,0,0,0,4.81,4.77,4.75,4.75,0,1,0-4.81-4.77Z"/>
<path class="cls-14" d="M372.67,126.58l-2.44-4.18a4.1,4.1,0,0,1-.51,0h-3.19v4.16h-2.7V112.45h5.89c3.66,0,5.74,1.75,5.74,4.86a4.59,4.59,0,0,1-2.81,4.58l3.11,4.69ZM366.53,120h3.19c2,0,3.15-.87,3.15-2.65s-1.13-2.58-3.15-2.58h-3.19Z"/>
<path class="cls-14" d="M394.84,112.45v2.36h-7.65v3.49h6.86v2.36h-6.86v3.56h7.89v2.36h-10.6V112.45Z"/>
<path class="cls-14" d="M407.58,112.45l0,2.36h-7v3.81h6.4V121h-6.4v5.59h-2.7V112.45Z"/>
<path class="cls-14" d="M420,112.45v2.36H412.3v3.49h6.86v2.36H412.3v3.56h7.89v2.36H409.6V112.45Z"/>
<path class="cls-14" d="M429.34,114.77a4.7,4.7,0,1,0,0,9.39,5.65,5.65,0,0,0,3.83-1.66l1.6,1.78a8.06,8.06,0,0,1-5.57,2.42,7.17,7.17,0,1,1,.1-14.33,7.81,7.81,0,0,1,5.45,2.26l-1.58,2A5.28,5.28,0,0,0,429.34,114.77Z"/>
<path class="cls-14" d="M446.94,112.45v2.4h-4.4v11.73h-2.72V114.85h-4.4v-2.4Z"/>
<path class="cls-14" d="M451.57,112.45v14.13h-2.71V112.45Z"/>
<path class="cls-14" d="M456.25,112.45l4.16,11.12,4.2-11.12h2.78l-5.65,14.13h-2.8l-5.6-14.13Z"/>
<path class="cls-14" d="M483.08,119.51a7.54,7.54,0,1,1-7.53-7.14A7.25,7.25,0,0,1,483.08,119.51Zm-12.29,0a4.79,4.79,0,0,0,4.8,4.77,4.75,4.75,0,1,0-4.8-4.77Z"/>
<path class="cls-15" d="M371,553.06a2.75,2.75,0,0,1,2.75,2.75v19.63a2.75,2.75,0,0,1-2.75,2.75H289.23a2.75,2.75,0,0,1-2.75-2.75V555.81a2.75,2.75,0,0,1,2.75-2.75H371"/>
<path class="cls-16" d="M371,578.68H289.23a3.24,3.24,0,0,1-3.24-3.24V555.81a3.25,3.25,0,0,1,3.24-3.24H371a3.25,3.25,0,0,1,3.24,3.24v19.63A3.24,3.24,0,0,1,371,578.68Zm-81.79-25.12a2.26,2.26,0,0,0-2.26,2.25v19.63a2.26,2.26,0,0,0,2.26,2.26H371a2.26,2.26,0,0,0,2.26-2.26V555.81a2.26,2.26,0,0,0-2.26-2.25Z"/>
<path class="cls-16" d="M330.54,563.5a2.79,2.79,0,1,0,2.79,2.79A2.74,2.74,0,0,0,330.54,563.5Zm0,4.47a1.69,1.69,0,1,1,1.57-1.68A1.61,1.61,0,0,1,330.54,568Zm-6.09-4.47a2.79,2.79,0,1,0,2.79,2.79A2.75,2.75,0,0,0,324.45,563.5Zm0,4.47a1.69,1.69,0,1,1,1.57-1.68A1.6,1.6,0,0,1,324.45,568Zm-7.25-3.61v1.18H320a2.39,2.39,0,0,1-.64,1.48,2.89,2.89,0,0,1-2.18.87,3.14,3.14,0,0,1,0-6.28,3,3,0,0,1,2.13.84l.83-.83a4.1,4.1,0,0,0-3-1.2,4.33,4.33,0,1,0,0,8.65,4,4,0,0,0,4-4.71Zm29.64.91a2.58,2.58,0,0,0-2.38-1.77,2.65,2.65,0,0,0-2.62,2.79,2.72,2.72,0,0,0,2.76,2.78,2.78,2.78,0,0,0,2.32-1.23l-.95-.64a1.58,1.58,0,0,1-1.37.77,1.41,1.41,0,0,1-1.35-.84l3.72-1.54Zm-3.79.93a1.53,1.53,0,0,1,1.45-1.62,1.08,1.08,0,0,1,1,.59Zm-3,2.7h1.23v-8.18H340Zm-2-4.78h0a2,2,0,0,0-1.47-.62,2.79,2.79,0,0,0,0,5.57,1.92,1.92,0,0,0,1.47-.63h0v.4a1.42,1.42,0,0,1-1.48,1.63,1.55,1.55,0,0,1-1.41-1l-1.06.44a2.65,2.65,0,0,0,2.47,1.65c1.43,0,2.64-.85,2.64-2.9v-5H338Zm-1.4,3.85a1.59,1.59,0,0,1-1.55-1.67,1.61,1.61,0,0,1,1.55-1.7,1.58,1.58,0,0,1,1.49,1.7A1.55,1.55,0,0,1,336.62,568Zm15.95-7.25h-2.92v8.18h1.22v-3.1h1.7a2.54,2.54,0,1,0,0-5.08Zm0,3.94h-1.73v-2.8h1.73a1.4,1.4,0,1,1,0,2.8Zm7.55-1.17a2.3,2.3,0,0,0-2.18,1.25l1.09.45a1.15,1.15,0,0,1,1.11-.6,1.19,1.19,0,0,1,1.29,1.06v.08a2.71,2.71,0,0,0-1.28-.32c-1.17,0-2.36.65-2.36,1.85a1.89,1.89,0,0,0,2,1.79,1.7,1.7,0,0,0,1.55-.79h0v.63h1.17v-3.14A2.24,2.24,0,0,0,360.15,563.49ZM360,568c-.4,0-.95-.2-.95-.69s.69-.88,1.29-.88a2.17,2.17,0,0,1,1.12.28A1.49,1.49,0,0,1,360,568Zm6.93-4.3-1.4,3.54h0L364,563.67h-1.31l2.18,5-1.25,2.76h1.28l3.36-7.71Zm-11,5.23h1.22v-8.18h-1.22Z"/>
<path class="cls-16" d="M292.88,557.94a1.25,1.25,0,0,0-.07.45v14.47a1.27,1.27,0,0,0,.07.46l7.69-7.69Z"/>
<path class="cls-16" d="M301.31,565.63,303.7,568l3-1.73c.33-.19.52-.43.52-.66s-.19-.47-.52-.66l-3-1.73Z"/>
<path class="cls-16" d="M293.32,573.71a1,1,0,0,0,.66-.17l9.19-5.22-2.23-2.23Z"/>
<path class="cls-16" d="M293.32,557.55l7.62,7.62,2.23-2.23L294,557.72A1.05,1.05,0,0,0,293.32,557.55Z"/>
<path class="cls-15" d="M389,578.38h-.67a11.64,11.64,0,0,1-1.38-.1,5,5,0,0,1-1.23-.36,4.25,4.25,0,0,1-1-.67,3.48,3.48,0,0,1-.76-.91,3.55,3.55,0,0,1-.4-1.09,7.16,7.16,0,0,1-.12-1.22c0-.14,0-.6,0-.6V558.3s0-.45,0-.58a7.26,7.26,0,0,1,.12-1.23,3.49,3.49,0,0,1,.4-1.08,3.69,3.69,0,0,1,.75-.92,4.51,4.51,0,0,1,1-.67,4.79,4.79,0,0,1,1.22-.35,10.71,10.71,0,0,1,1.39-.11h77.34a10.3,10.3,0,0,1,1.37.11,4.56,4.56,0,0,1,1.24.36,4.11,4.11,0,0,1,1,.66,3.69,3.69,0,0,1,.75.92,3.59,3.59,0,0,1,.4,1.08,7.45,7.45,0,0,1,.13,1.23v.58c0,.25,0,.48,0,.72v13.69c0,.24,0,.47,0,.71V574a7.44,7.44,0,0,1-.13,1.21,3.48,3.48,0,0,1-1.15,2,4.25,4.25,0,0,1-1,.67,5.26,5.26,0,0,1-1.24.36,11.35,11.35,0,0,1-1.38.1H389Z"/>
<g id="_Group_" data-name="&lt;Group&gt;">
    <g id="_Group_2" data-name="&lt;Group&gt;">
        <g id="_Group_3" data-name="&lt;Group&gt;">
            <path id="_Path_" data-name="&lt;Path&gt;" class="cls-16" d="M400.37,565.27a4,4,0,0,1,1.88-3.33,4,4,0,0,0-3.19-1.72c-1.34-.14-2.64.8-3.33.8s-1.75-.79-2.89-.76a4.22,4.22,0,0,0-3.57,2.18c-1.55,2.68-.4,6.61,1.09,8.78.74,1.06,1.6,2.24,2.74,2.2s1.52-.71,2.86-.71,1.72.71,2.87.68,1.94-1.06,2.66-2.13a8.55,8.55,0,0,0,1.21-2.47A3.85,3.85,0,0,1,400.37,565.27Z"/>
            <path id="_Path_2" data-name="&lt;Path&gt;" class="cls-16" d="M398.18,558.79a3.89,3.89,0,0,0,.9-2.79,4,4,0,0,0-2.57,1.33,3.74,3.74,0,0,0-.92,2.69A3.27,3.27,0,0,0,398.18,558.79Z"/>
        </g>
    </g>
    <path class="cls-16" d="M413.68,567.57H410l-.87,2.58h-1.55l3.45-9.55h1.6l3.45,9.55h-1.57Zm-3.26-1.19h2.88l-1.42-4.19h0Z"/>
    <path class="cls-16" d="M423.57,566.67c0,2.17-1.16,3.56-2.9,3.56a2.37,2.37,0,0,1-2.2-1.22h0v3.45H417v-9.27h1.39v1.16h0a2.47,2.47,0,0,1,2.22-1.23C422.41,563.12,423.57,564.51,423.57,566.67Zm-1.47,0c0-1.41-.73-2.34-1.84-2.34s-1.83.95-1.83,2.34.74,2.35,1.83,2.35S422.1,568.09,422.1,566.67Z"/>
    <path class="cls-16" d="M431.24,566.67c0,2.17-1.16,3.56-2.91,3.56a2.37,2.37,0,0,1-2.19-1.22h0v3.45h-1.43v-9.27h1.38v1.16h0a2.45,2.45,0,0,1,2.21-1.23C430.07,563.12,431.24,564.51,431.24,566.67Zm-1.47,0c0-1.41-.73-2.34-1.84-2.34s-1.83.95-1.83,2.34.74,2.35,1.83,2.35S429.77,568.09,429.77,566.67Z"/>
    <path class="cls-16" d="M436.3,567.49c.11,1,1,1.57,2.29,1.57s2.07-.62,2.07-1.47-.52-1.19-1.76-1.49l-1.24-.3c-1.75-.43-2.57-1.25-2.57-2.58,0-1.65,1.44-2.78,3.48-2.78s3.4,1.13,3.45,2.78h-1.45c-.08-1-.87-1.53-2-1.53s-1.94.59-1.94,1.43c0,.68.5,1.08,1.73,1.38l1.05.26c2,.46,2.78,1.25,2.78,2.65,0,1.78-1.42,2.9-3.69,2.9s-3.55-1.09-3.64-2.82Z"/>
    <path class="cls-16" d="M445.25,561.54v1.65h1.33v1.13h-1.33v3.84c0,.6.27.88.85.88a2.94,2.94,0,0,0,.47,0v1.13a4,4,0,0,1-.79.06c-1.41,0-2-.53-2-1.88v-4h-1v-1.13h1v-1.65Z"/>
    <path class="cls-16" d="M447.35,566.67c0-2.19,1.29-3.57,3.3-3.57s3.3,1.38,3.3,3.57-1.28,3.57-3.3,3.57S447.35,568.87,447.35,566.67Zm5.15,0c0-1.5-.69-2.39-1.85-2.39s-1.85.9-1.85,2.39.69,2.39,1.85,2.39S452.5,568.18,452.5,566.67Z"/>
    <path class="cls-16" d="M455.13,563.19h1.36v1.18h0a1.66,1.66,0,0,1,1.67-1.25,2,2,0,0,1,.49,0v1.34a1.85,1.85,0,0,0-.64-.09,1.44,1.44,0,0,0-1.49,1.6v4.13h-1.43Z"/>
    <path class="cls-16" d="M465.28,568.11a2.79,2.79,0,0,1-3,2.13c-2,0-3.29-1.36-3.29-3.53s1.27-3.61,3.23-3.61,3.13,1.33,3.13,3.44V567h-4.92v.09a1.81,1.81,0,0,0,1.88,2,1.59,1.59,0,0,0,1.61-1ZM460.45,566h3.48a1.67,1.67,0,0,0-1.7-1.77A1.77,1.77,0,0,0,460.45,566Z"/>
</g>
<path class="cls-16" d="M464.15,578.8H388.27a11.29,11.29,0,0,1-1.44-.11,5.42,5.42,0,0,1-1.33-.39,4.56,4.56,0,0,1-1.14-.74,4,4,0,0,1-.83-1,3.57,3.57,0,0,1-.45-1.22A7.12,7.12,0,0,1,383,574c0-.14,0-.6,0-.6V558.3s0-.46,0-.59a7.22,7.22,0,0,1,.13-1.3,3.6,3.6,0,0,1,.45-1.21,3.84,3.84,0,0,1,.83-1,4.52,4.52,0,0,1,1.14-.73,4.87,4.87,0,0,1,1.33-.39,11.42,11.42,0,0,1,1.44-.11h77.35a11.16,11.16,0,0,1,1.44.11,5,5,0,0,1,1.34.39,4.3,4.3,0,0,1,1.13.73,3.94,3.94,0,0,1,1.29,2.23,7.34,7.34,0,0,1,.13,1.3v.59c0,.24,0,.48,0,.72v13.69c0,.25,0,.48,0,.72v.6a7.33,7.33,0,0,1-.13,1.29,4,4,0,0,1-.45,1.22,4.07,4.07,0,0,1-.84,1,4.3,4.3,0,0,1-1.13.73,5.22,5.22,0,0,1-1.34.4,11.29,11.29,0,0,1-1.44.11h-1.47Zm-80.39-5.38s0,.45,0,.58a6.35,6.35,0,0,0,.12,1.16,3.05,3.05,0,0,0,1,1.77,3.52,3.52,0,0,0,.93.6,4.72,4.72,0,0,0,1.12.33,11,11,0,0,0,1.33.1H465.6a10.71,10.71,0,0,0,1.33-.1,4.37,4.37,0,0,0,1.13-.33,3.84,3.84,0,0,0,.92-.6,2.9,2.9,0,0,0,.67-.81,2.76,2.76,0,0,0,.35-1,6.71,6.71,0,0,0,.12-1.15V557.73a6.72,6.72,0,0,0-.12-1.16,2.91,2.91,0,0,0-.35-1,3.22,3.22,0,0,0-.67-.81,3.84,3.84,0,0,0-.92-.6,4.48,4.48,0,0,0-1.13-.32,9.37,9.37,0,0,0-1.32-.11H388.29a9.16,9.16,0,0,0-1.33.11,4.41,4.41,0,0,0-1.12.32,3.9,3.9,0,0,0-.93.6,3.44,3.44,0,0,0-.67.81,3.15,3.15,0,0,0-.35,1,6.44,6.44,0,0,0-.12,1.16c0,.13,0,.58,0,.58v15.11Z"/>
<polygon class="cls-17" points="442.78 484.15 438.36 497.49 433.96 484.2 425.14 484.2 434.01 510.97 430.62 519.81 439.44 519.81 442.83 510.98 447.18 497.47 451.58 484.21 451.6 484.15 442.78 484.15"/>
<rect class="cls-17" x="410.02" y="475.24" width="8.82" height="35.61"/>
<path class="cls-17" d="M377.08,497.5a13.37,13.37,0,0,0,13.38,13.35h13.38V484.14H390.46A13.37,13.37,0,0,0,377.08,497.5Zm17.93,0a4.46,4.46,0,1,1-4.46-4.45A4.46,4.46,0,0,1,395,497.49Z"/>
<path class="cls-17" d="M362.11,497.54a4.46,4.46,0,0,1-4.46,4.45h0a4.46,4.46,0,0,1-4.46-4.45V484.19h-8.92v13.36a13.38,13.38,0,0,0,26.76,0V484.19h-8.92Z"/>
<path class="cls-17" d="M325,484.16A13.37,13.37,0,0,0,311.6,498a13.11,13.11,0,0,0,4.26,9.19,13.88,13.88,0,0,0,9.12,3.69h4.44a2,2,0,0,1,.09.6,2.09,2.09,0,0,1-4,.83h0L318.29,516a11.3,11.3,0,0,0,19.83-5s0-4.27,0-4.27v-9.39l0-13.17Zm4.44,13.63a4.45,4.45,0,0,1-8.5,1.54,4.27,4.27,0,0,1-.4-1.83,4.46,4.46,0,0,1,8.91,0A2.81,2.81,0,0,1,329.42,497.79Z"/>
<rect class="cls-17" x="347.17" y="404.98" width="68.69" height="68.69" rx="15.04" ry="15.04"/>
<rect class="cls-18" x="349.5" y="410.83" width="51.99" height="33.32" rx="9.32" ry="9.32" transform="translate(-113.75 137) rotate(-18.01)"/>
<rect class="cls-19" x="359.7" y="415.11" width="51.99" height="34.65" rx="9.5" ry="9.5" transform="translate(-57.7 59.39) rotate(-8.2)"/>
<path class="cls-20" d="M402.23,427.43V457.1a16.62,16.62,0,0,1-16.62,16.62H362.18a15,15,0,0,1-15-15V420.58h0a6.15,6.15,0,0,1,.87-.06h47.28a6.92,6.92,0,0,1,6.71,5.24A7,7,0,0,1,402.23,427.43Z"/>
<path class="cls-17" d="M393.81,419.18h-45.6a7.17,7.17,0,0,0-1,.07v2.68a6,6,0,0,1,1-.09h45.6a5.77,5.77,0,0,1,5.76,5.77v.28h2.66v-.28A8.42,8.42,0,0,0,393.81,419.18Z"/>
<path class="cls-1" d="M415.77,420.13V458.7a15,15,0,0,1-15,15H362.18a15,15,0,0,1-15-15V420.13c0-.2,0-.4,0-.6s0-.19,0-.29a15,15,0,0,1,15-14.13h38.57A15,15,0,0,1,415.77,420.13Z"/>
<path class="cls-17" d="M402.23,442.36h0v-7.1c0-2.39,0-4.78,0-7.16v-.31h-.3l-2.16,0H388a14.48,14.48,0,0,0-6.74,1.68,14.42,14.42,0,0,0-7.51,14.94,13.73,13.73,0,0,0,3,6.73,14.87,14.87,0,0,0,6.39,4.55,16,16,0,0,0,5.7.94h3.41c.6,0,.62,0,.63.62a2.28,2.28,0,0,1-1.66,2.25,2.24,2.24,0,0,1-2.57-1.08c-.09-.15-.16-.17-.32-.09-.59.31-1.19.61-1.79.91L381.06,462c-.19.1-.19.11-.05.27a12.15,12.15,0,0,0,1.75,1.69,12,12,0,0,0,8.11,2.56A11.22,11.22,0,0,0,394,466a12.06,12.06,0,0,0,7.93-8.16,4.31,4.31,0,0,0,.26-1.17c0-.54,0-1.08,0-1.62ZM388.05,447a4.83,4.83,0,1,1,0-9.65,4.83,4.83,0,1,1,0,9.65Z"/>
<rect class="cls-1" y="0.4" width="252" height="252"/>
<rect class="cls-1" width="252" height="612"/>
<path class="cls-21" d="M92,461c0,1.71-1.08,2.7-3,2.7H87.39v2.2H86v-7.47H89C90.9,458.46,92,459.38,92,461Zm-1.36,0c0-.92-.61-1.36-1.67-1.36H87.39v2.76H89C90,462.47,90.62,462,90.62,461.07Z"/>
<path class="cls-21" d="M96.49,465.93v-.69a2.26,2.26,0,0,1-1.85.76,1.8,1.8,0,0,1-2-1.78c0-1.05.78-1.71,2.17-1.72h1.67v-.15c0-.66-.44-1.05-1.29-1.05a3.33,3.33,0,0,0-1.7.53l-.5-1a4.57,4.57,0,0,1,2.51-.7c1.49,0,2.33.75,2.35,2v3.74Zm0-2v-.52H95c-.74,0-1.08.21-1.08.71s.38.79,1,.79A1.41,1.41,0,0,0,96.48,464Z"/>
<path class="cls-21" d="M104.64,460.22v5.17c0,1.63-1.19,2.67-3,2.67a4.23,4.23,0,0,1-2.41-.76l.55-1a2.93,2.93,0,0,0,1.78.59c1,0,1.68-.56,1.68-1.47v-.67a2.06,2.06,0,0,1-1.81.89,2.52,2.52,0,0,1-2.55-2.75,2.49,2.49,0,0,1,2.5-2.71,2.12,2.12,0,0,1,1.86.89v-.85Zm-1.39,2.7a1.51,1.51,0,0,0-1.52-1.63,1.63,1.63,0,0,0,0,3.26A1.51,1.51,0,0,0,103.25,462.92Z"/>
<path class="cls-21" d="M109.65,465.93v-.69a2.24,2.24,0,0,1-1.85.76,1.8,1.8,0,0,1-2-1.78c0-1.05.78-1.71,2.17-1.72h1.66v-.15c0-.66-.44-1.05-1.29-1.05a3.36,3.36,0,0,0-1.7.53l-.5-1a4.57,4.57,0,0,1,2.51-.7c1.49,0,2.34.75,2.35,2v3.74Zm0-2v-.52H108.2c-.74,0-1.08.21-1.08.71s.39.79,1,.79A1.39,1.39,0,0,0,109.64,464Z"/>
<path class="cls-21" d="M119.16,465.93v-.69a2.25,2.25,0,0,1-1.85.76,1.8,1.8,0,0,1-2-1.78c0-1.05.78-1.71,2.16-1.72h1.67v-.15c0-.66-.44-1.05-1.29-1.05a3.36,3.36,0,0,0-1.7.53l-.5-1a4.57,4.57,0,0,1,2.51-.7c1.49,0,2.34.75,2.35,2v3.74Zm0-2v-.52h-1.44c-.74,0-1.08.21-1.08.71s.38.79,1,.79A1.4,1.4,0,0,0,119.15,464Z"/>
<path class="cls-21" d="M127.6,460.22V468h-1.39v-3a2.17,2.17,0,0,1-1.92,1,2.69,2.69,0,0,1-2.72-2.94,2.65,2.65,0,0,1,2.69-2.89,2.19,2.19,0,0,1,1.95,1v-.94Zm-1.39,2.87a1.61,1.61,0,0,0-1.62-1.74,1.63,1.63,0,0,0-1.62,1.74,1.62,1.62,0,1,0,3.24,0Z"/>
<path class="cls-21" d="M134.66,460.22v5.71h-1.4v-1.05a2.06,2.06,0,0,1-2,1.11,2,2,0,0,1-2.07-2.19v-3.58h1.39v3.17a1.15,1.15,0,0,0,1.23,1.28,1.47,1.47,0,0,0,1.43-1.63v-2.82Z"/>
<path class="cls-21" d="M138.82,458.36l-1.32,1.1h-1.18l1.13-1.65Zm-1,1.86v5.71H136.4v-5.71Z"/>
<path class="cls-21" d="M145.15,461.39a1.71,1.71,0,0,0,0,3.4,1.82,1.82,0,0,0,1.53-.67l.87.71a2.87,2.87,0,0,1-2.48,1.16,2.91,2.91,0,0,1,0-5.81,2.9,2.9,0,0,1,2.39,1l-.84.8A2,2,0,0,0,145.15,461.39Z"/>
<path class="cls-21" d="M154,463.07a3,3,0,1,1-3-2.89A2.81,2.81,0,0,1,154,463.07Zm-4.62,0a1.62,1.62,0,1,0,1.62-1.73A1.6,1.6,0,0,0,149.41,463.09Z"/>
<path class="cls-21" d="M160.8,462.37v3.56h-1.4v-3.16a1.18,1.18,0,0,0-1.27-1.29,1.49,1.49,0,0,0-1.5,1.64v2.81h-1.39v-5.71h1.39v1.07a2.17,2.17,0,0,1,2.05-1.12A2,2,0,0,1,160.8,462.37Z"/>
<path class="cls-22" d="M118.13,570.75a1.63,1.63,0,0,1,1.63,1.62V584a1.63,1.63,0,0,1-1.63,1.63H69.75A1.63,1.63,0,0,1,68.12,584V572.37a1.63,1.63,0,0,1,1.63-1.62h48.38"/>
<path class="cls-23" d="M118.13,585.9H69.75A1.92,1.92,0,0,1,67.83,584V572.37a1.92,1.92,0,0,1,1.92-1.91h48.38a1.92,1.92,0,0,1,1.92,1.91V584A1.92,1.92,0,0,1,118.13,585.9ZM69.75,571a1.33,1.33,0,0,0-1.33,1.33V584a1.33,1.33,0,0,0,1.33,1.34h48.38a1.34,1.34,0,0,0,1.34-1.34V572.37a1.34,1.34,0,0,0-1.34-1.33Z"/>
<path class="cls-23" d="M94.19,576.92a1.65,1.65,0,1,0,1.65,1.65A1.63,1.63,0,0,0,94.19,576.92Zm0,2.65a1,1,0,1,1,.93-1A1,1,0,0,1,94.19,579.57Zm-3.61-2.65a1.65,1.65,0,1,0,1.65,1.65A1.62,1.62,0,0,0,90.58,576.92Zm0,2.65a1,1,0,1,1,.93-1A1,1,0,0,1,90.58,579.57Zm-4.29-2.14v.7H88a1.5,1.5,0,0,1-.38.87,1.72,1.72,0,0,1-1.3.52,1.86,1.86,0,0,1,0-3.72,1.78,1.78,0,0,1,1.26.5l.5-.49a2.46,2.46,0,0,0-1.76-.71,2.56,2.56,0,1,0,0,5.11,2.36,2.36,0,0,0,1.79-.71,2.31,2.31,0,0,0,.6-1.64,2.72,2.72,0,0,0,0-.43Zm17.54.54a1.53,1.53,0,0,0-1.41-1.05,1.56,1.56,0,0,0-1.55,1.65,1.64,1.64,0,0,0,3,.91l-.56-.37a.94.94,0,0,1-.81.46.85.85,0,0,1-.8-.5l2.21-.91Zm-2.24.55a.9.9,0,0,1,.86-1,.64.64,0,0,1,.61.35Zm-1.79,1.59h.72v-4.83H99.8Zm-1.19-2.82h0a1.18,1.18,0,0,0-.87-.37,1.65,1.65,0,0,0,0,3.29,1.14,1.14,0,0,0,.87-.37h0v.24c0,.63-.33,1-.88,1a.92.92,0,0,1-.83-.58l-.63.26a1.56,1.56,0,0,0,1.46,1A1.51,1.51,0,0,0,99.3,580v-3h-.69Zm-.83,2.28a1,1,0,0,1,0-2,1,1,0,0,1,0,2Zm9.44-4.29h-1.73v4.83h.72v-1.83h1a1.5,1.5,0,1,0,0-3Zm0,2.33h-1V576h1a.83.83,0,1,1,0,1.66Zm4.46-.7a1.37,1.37,0,0,0-1.29.74l.64.27a.78.78,0,0,1,1.42.27v0a1.52,1.52,0,0,0-.75-.19c-.69,0-1.39.38-1.39,1.09a1.12,1.12,0,0,0,1.2,1.07,1,1,0,0,0,.92-.48h0v.38h.7v-1.86A1.33,1.33,0,0,0,111.7,576.91Zm-.09,2.65c-.23,0-.56-.11-.56-.41s.41-.51.76-.51a1.31,1.31,0,0,1,.66.16A.86.86,0,0,1,111.61,579.56Zm4.1-2.54-.83,2.1h0L114,577h-.78l1.29,2.93-.74,1.63h.76l2-4.56Zm-6.5,3.09h.72v-4.83h-.72Z"/>
<path class="cls-23" d="M71.91,573.63a.77.77,0,0,0,0,.27v8.56a.77.77,0,0,0,0,.27l4.55-4.55Z"/>
<path class="cls-23" d="M76.9,578.18l1.41,1.41,1.8-1c.2-.11.31-.25.31-.39s-.11-.28-.31-.39l-1.8-1Z"/>
<path class="cls-23" d="M72.17,583a.62.62,0,0,0,.39-.1L78,579.77l-1.32-1.32Z"/>
<path class="cls-23" d="M72.17,573.4l4.51,4.51L78,576.59l-5.44-3.09A.62.62,0,0,0,72.17,573.4Z"/>
<path class="cls-22" d="M130.18,585.48h-.39a8.12,8.12,0,0,1-.82-.06,3.89,3.89,0,0,1-.73-.21,2.79,2.79,0,0,1-.61-.4,2,2,0,0,1-.44-.54,1.89,1.89,0,0,1-.24-.64,4,4,0,0,1-.07-.73c0-.08,0-.35,0-.35v-8.94s0-.27,0-.35a4,4,0,0,1,.07-.72,1.89,1.89,0,0,1,.24-.64,1.94,1.94,0,0,1,.44-.55,2.44,2.44,0,0,1,.61-.39,2.93,2.93,0,0,1,.73-.21,6.48,6.48,0,0,1,.82-.07h45.74a6.48,6.48,0,0,1,.82.07,2.93,2.93,0,0,1,.73.21,2.44,2.44,0,0,1,.61.39,1.94,1.94,0,0,1,.44.55,1.92,1.92,0,0,1,.24.63,3.75,3.75,0,0,1,.07.73c0,.11,0,.23,0,.35v8.94c0,.12,0,.24,0,.36a3.58,3.58,0,0,1-.07.72,2.06,2.06,0,0,1-.24.64,1.9,1.9,0,0,1-.44.54,2.44,2.44,0,0,1-.61.39,2.82,2.82,0,0,1-.73.22,8.12,8.12,0,0,1-.82.06H130.18Z"/>
<g id="_Group_4" data-name="&lt;Group&gt;">
    <g id="_Group_5" data-name="&lt;Group&gt;">
        <g id="_Group_6" data-name="&lt;Group&gt;">
            <path id="_Path_3" data-name="&lt;Path&gt;" class="cls-23" d="M136.94,577.73a2.36,2.36,0,0,1,1.11-2,2.39,2.39,0,0,0-1.89-1c-.79-.08-1.56.48-2,.48s-1-.47-1.71-.46a2.54,2.54,0,0,0-2.12,1.29c-.91,1.59-.23,3.92.65,5.2.43.63.95,1.33,1.62,1.3s.9-.42,1.69-.42,1,.42,1.7.41,1.15-.63,1.57-1.27a5.14,5.14,0,0,0,.72-1.46A2.26,2.26,0,0,1,136.94,577.73Z"/>
            <path id="_Path_4" data-name="&lt;Path&gt;" class="cls-23" d="M135.65,573.9a2.29,2.29,0,0,0,.52-1.65,2.3,2.3,0,0,0-1.51.78,2.21,2.21,0,0,0-.55,1.59A1.94,1.94,0,0,0,135.65,573.9Z"/>
        </g>
    </g>
    <path class="cls-23" d="M144.81,579.09h-2.15l-.52,1.53h-.91l2-5.65h.95l2,5.65h-.93Zm-1.93-.7h1.71l-.84-2.48h0Z"/>
    <path class="cls-23" d="M150.66,578.56c0,1.28-.68,2.1-1.72,2.1a1.39,1.39,0,0,1-1.29-.72h0v2h-.85V576.5h.82v.68h0a1.45,1.45,0,0,1,1.31-.72C150,576.46,150.66,577.28,150.66,578.56Zm-.87,0c0-.84-.43-1.38-1.08-1.38s-1.09.56-1.09,1.38.44,1.38,1.09,1.38S149.79,579.4,149.79,578.56Z"/>
    <path class="cls-23" d="M155.2,578.56c0,1.28-.69,2.1-1.72,2.1a1.4,1.4,0,0,1-1.3-.72h0v2h-.84V576.5h.82v.68h0a1.47,1.47,0,0,1,1.31-.72C154.51,576.46,155.2,577.28,155.2,578.56Zm-.87,0c0-.84-.43-1.38-1.09-1.38s-1.08.56-1.08,1.38.43,1.38,1.08,1.38S154.33,579.4,154.33,578.56Z"/>
    <path class="cls-23" d="M158.19,579c.07.56.61.93,1.35.93s1.23-.37,1.23-.87-.31-.7-1-.88L159,578c-1-.25-1.52-.73-1.52-1.52,0-1,.85-1.65,2.05-1.65s2,.67,2,1.65h-.85c-.05-.57-.52-.91-1.2-.91s-1.15.35-1.15.85.3.63,1,.81l.62.16c1.16.27,1.64.74,1.64,1.56,0,1.06-.84,1.72-2.18,1.72s-2.1-.64-2.15-1.67Z"/>
    <path class="cls-23" d="M163.49,575.52v1h.78v.67h-.78v2.27c0,.35.16.52.5.52l.28,0v.66a2,2,0,0,1-.47,0c-.84,0-1.16-.31-1.16-1.11v-2.36H162v-.67h.6v-1Z"/>
    <path class="cls-23" d="M164.73,578.56a2,2,0,1,1,2,2.11A1.89,1.89,0,0,1,164.73,578.56Zm3,0c0-.89-.41-1.42-1.09-1.42s-1.09.53-1.09,1.42.4,1.41,1.09,1.41S167.77,579.45,167.77,578.56Z"/>
    <path class="cls-23" d="M169.33,576.5h.81v.7h0a1,1,0,0,1,1-.74,1.12,1.12,0,0,1,.29,0v.79a1.16,1.16,0,0,0-.38,0,.85.85,0,0,0-.88.94v2.45h-.85Z"/>
    <path class="cls-23" d="M175.34,579.41a1.66,1.66,0,0,1-1.78,1.26,1.87,1.87,0,0,1-1.94-2.09,1.9,1.9,0,0,1,1.91-2.13,1.81,1.81,0,0,1,1.85,2v.29h-2.91v.05a1.08,1.08,0,0,0,1.11,1.17.94.94,0,0,0,.95-.58Zm-2.86-1.23h2.06a1,1,0,0,0-1-1A1,1,0,0,0,172.48,578.18Z"/>
</g>
<path class="cls-23" d="M174.66,585.73H129.78a6.92,6.92,0,0,1-.85-.07,3.16,3.16,0,0,1-.79-.23,2.68,2.68,0,0,1-.67-.44,2.19,2.19,0,0,1-.49-.6,2.09,2.09,0,0,1-.27-.71,4.68,4.68,0,0,1-.08-.77v-9.65a4.68,4.68,0,0,1,.08-.77,2.47,2.47,0,0,1,.26-.72,2.39,2.39,0,0,1,.5-.6,2.48,2.48,0,0,1,.67-.43,2.66,2.66,0,0,1,.79-.23,7.08,7.08,0,0,1,.85-.07h45.76a6.92,6.92,0,0,1,.85.07,2.66,2.66,0,0,1,.79.23,2.48,2.48,0,0,1,.67.43,2.42,2.42,0,0,1,.5.6,2.58,2.58,0,0,1,.26.72,5.16,5.16,0,0,1,.08.77v9.65a5.3,5.3,0,0,1-.08.77,2.25,2.25,0,0,1-.76,1.31,2.51,2.51,0,0,1-.67.44,3.29,3.29,0,0,1-.79.23,7.08,7.08,0,0,1-.85.07h-.88Zm-47.54-3.18v.35a4.48,4.48,0,0,0,.07.68,1.77,1.77,0,0,0,.21.57,2,2,0,0,0,.39.48,2.3,2.3,0,0,0,.56.35,2.55,2.55,0,0,0,.66.2,7.81,7.81,0,0,0,.78.06h45.73a7.57,7.57,0,0,0,.79-.06,2.76,2.76,0,0,0,.67-.2,2.44,2.44,0,0,0,.55-.35,2,2,0,0,0,.39-.48,1.77,1.77,0,0,0,.21-.57,4.13,4.13,0,0,0,.07-.68v-9.63a4.14,4.14,0,0,0-.07-.69,1.8,1.8,0,0,0-.21-.56,2,2,0,0,0-.39-.48,2.17,2.17,0,0,0-.55-.36,2.88,2.88,0,0,0-.67-.19,5.65,5.65,0,0,0-.78-.06H129.79a5.54,5.54,0,0,0-.78.06,2.88,2.88,0,0,0-.67.19,2.17,2.17,0,0,0-.55.36,1.79,1.79,0,0,0-.39.48,1.77,1.77,0,0,0-.21.57,4.48,4.48,0,0,0-.07.68v9.28Z"/>
<rect class="cls-17" x="104.17" y="485.8" width="38.61" height="38.61" rx="8.45" ry="8.45"/>
<rect class="cls-24" x="105.48" y="489.09" width="29.23" height="18.73" rx="5.24" ry="5.24" transform="translate(-148.2 61.53) rotate(-18.01)"/>
<rect class="cls-25" x="111.21" y="491.5" width="29.23" height="19.48" rx="5.34" ry="5.34" transform="translate(-70.17 23.05) rotate(-8.2)"/>
<path class="cls-26" d="M135.12,498.43v16.68a9.34,9.34,0,0,1-9.34,9.34H112.6a8.44,8.44,0,0,1-8.44-8.44V494.57h0a3.91,3.91,0,0,1,.49,0h26.58a3.88,3.88,0,0,1,3.77,2.94A4.26,4.26,0,0,1,135.12,498.43Z"/>
<path class="cls-17" d="M130.39,493.79H104.75a5.63,5.63,0,0,0-.58,0v1.51a3.68,3.68,0,0,1,.58-.05h25.64a3.25,3.25,0,0,1,3.24,3.24v.16h1.49v-.16A4.73,4.73,0,0,0,130.39,493.79Z"/>
<path class="cls-1" d="M142.73,494.32V516a8.44,8.44,0,0,1-8.44,8.44H112.6a8.44,8.44,0,0,1-8.44-8.44V494.32c0-.11,0-.22,0-.33a1,1,0,0,1,0-.17,8.43,8.43,0,0,1,8.42-7.94h21.69A8.44,8.44,0,0,1,142.73,494.32Z"/>
<path class="cls-17" d="M135.12,506.82h0c0-1.33,0-2.66,0-4s0-2.69,0-4v-.17h-8a8.72,8.72,0,0,0-1,.06,8.11,8.11,0,0,0-2.76.88,8,8,0,0,0-3.44,3.49,7.88,7.88,0,0,0-.78,4.91,7.62,7.62,0,0,0,1.7,3.78,8.23,8.23,0,0,0,3.59,2.56,8.93,8.93,0,0,0,3.2.53h1.92c.34,0,.35,0,.36.35a1.28,1.28,0,0,1-.94,1.26,1.25,1.25,0,0,1-1.44-.6c0-.09-.09-.1-.18-.06-.33.18-.67.35-1,.52l-3.12,1.58c-.11,0-.11.06,0,.15a6.82,6.82,0,0,0,5.55,2.39,6.34,6.34,0,0,0,1.77-.32,6.81,6.81,0,0,0,4.46-4.59,2.43,2.43,0,0,0,.14-.66c0-.3,0-.61,0-.91Zm-8,2.61a2.72,2.72,0,0,1,0-5.43,2.72,2.72,0,1,1,0,5.43Z"/>
<polygon class="cls-21" points="160.83 531.62 158.12 539.8 155.41 531.65 150 531.65 155.44 548.08 153.36 553.51 158.78 553.51 160.86 548.09 163.53 539.79 166.23 531.65 166.24 531.62 160.83 531.62"/>
<rect class="cls-21" x="140.71" y="526.15" width="5.42" height="21.86"/>
<path class="cls-21" d="M120.49,539.81a8.21,8.21,0,0,0,8.22,8.2h8.21v-16.4h-8.21A8.21,8.21,0,0,0,120.49,539.81Zm11,0a2.74,2.74,0,1,1-2.74-2.73A2.74,2.74,0,0,1,131.5,539.8Z"/>
<path class="cls-21" d="M111.3,539.83a2.74,2.74,0,0,1-2.74,2.74h0a2.74,2.74,0,0,1-2.74-2.74v-8.19h-5.47v8.2a8.22,8.22,0,0,0,16.43,0v-8.2H111.3Z"/>
<path class="cls-21" d="M88.5,531.62a8.21,8.21,0,0,0-8.21,8.48,8,8,0,0,0,2.61,5.64A8.55,8.55,0,0,0,88.5,548h2.73a1.11,1.11,0,0,1,0,.37,1.28,1.28,0,0,1-2.45.5h0l-4.43,2.24a6.94,6.94,0,0,0,12.17-3s0-2.62,0-2.62V531.63ZM91.23,540a2.73,2.73,0,0,1-5.22,1,2.7,2.7,0,0,1-.25-1.13,2.74,2.74,0,0,1,5.48,0A1.09,1.09,0,0,1,91.23,540Z"/>
<path class="cls-21" d="M70.49,278.75c0,1.52-1,2.41-2.64,2.41H66.39v2H65.11v-6.67h2.74C69.52,276.45,70.49,277.28,70.49,278.75Zm-1.21,0c0-.82-.55-1.22-1.5-1.22H66.39V280h1.39C68.73,280,69.28,279.62,69.28,278.78Z"/>
<path class="cls-21" d="M74.51,283.12v-.62a2,2,0,0,1-1.65.68,1.61,1.61,0,0,1-1.78-1.58c0-1,.7-1.53,1.94-1.54H74.5v-.13c0-.59-.39-.95-1.15-.95a3.06,3.06,0,0,0-1.52.48l-.44-.86a4.08,4.08,0,0,1,2.24-.63c1.33,0,2.09.68,2.1,1.81v3.34Zm0-1.77v-.46H73.22c-.66,0-1,.18-1,.63s.35.71.91.71A1.24,1.24,0,0,0,74.5,281.35Z"/>
<path class="cls-21" d="M80.1,278v1.2a1.47,1.47,0,0,0-1.73,1.49v2.46H77.13V278h1.24v1A1.86,1.86,0,0,1,80.1,278Z"/>
<path class="cls-21" d="M83.81,283.12v-.62a2,2,0,0,1-1.65.68,1.61,1.61,0,0,1-1.79-1.58c0-1,.7-1.53,1.94-1.54H83.8v-.13c0-.59-.39-.95-1.16-.95a3,3,0,0,0-1.51.48l-.45-.86a4.08,4.08,0,0,1,2.24-.63c1.33,0,2.09.68,2.1,1.81v3.34Zm0-1.77v-.46H82.51c-.66,0-1,.18-1,.63s.34.71.9.71A1.26,1.26,0,0,0,83.8,281.35Z"/>
<path class="cls-21" d="M93.85,281H90.08a1.43,1.43,0,0,0,1.46,1.16,1.9,1.9,0,0,0,1.38-.57l.66.69a2.78,2.78,0,0,1-2.14.88,2.6,2.6,0,1,1,0-5.19C93.2,278,94,279.15,93.85,281Zm-1.12-.83A1.21,1.21,0,0,0,91.42,279a1.33,1.33,0,0,0-1.36,1.23Z"/>
<path class="cls-21" d="M99.89,279.94v3.18H98.64V280.3a1.05,1.05,0,0,0-1.13-1.15,1.33,1.33,0,0,0-1.34,1.46v2.51H94.93V278h1.24v1A2,2,0,0,1,98,278,1.79,1.79,0,0,1,99.89,279.94Z"/>
<path class="cls-21" d="M101.67,278,103,281.9l1.31-3.88h1.25l-2,5.1h-1.28l-2-5.09Z"/>
<path class="cls-21" d="M107.56,276.56a.67.67,0,1,1-.66-.69A.65.65,0,0,1,107.56,276.56Zm0,1.46v5.1h-1.25V278Z"/>
<path class="cls-21" d="M112.06,283.12v-.62a2,2,0,0,1-1.65.68,1.61,1.61,0,0,1-1.78-1.58c0-1,.7-1.53,1.94-1.54h1.49v-.13c0-.59-.4-.95-1.16-.95a3,3,0,0,0-1.51.48l-.45-.86a4.08,4.08,0,0,1,2.24-.63c1.33,0,2.09.68,2.1,1.81v3.34Zm0-1.77v-.46h-1.29c-.66,0-1,.18-1,.63s.34.71.9.71A1.26,1.26,0,0,0,112.06,281.35Z"/>
<path class="cls-21" d="M117.66,278v1.2a1.48,1.48,0,0,0-1.74,1.49v2.46h-1.24V278h1.24v1A1.87,1.87,0,0,1,117.66,278Z"/>
<path class="cls-21" d="M123.48,279.94v3.18h-1.25V280.3a1,1,0,0,0-1.13-1.15,1.32,1.32,0,0,0-1.33,1.46v2.51h-1.25V278h1.25v1a2,2,0,0,1,1.83-1A1.78,1.78,0,0,1,123.48,279.94Z"/>
<path class="cls-21" d="M129.79,280.57a2.69,2.69,0,1,1-2.68-2.59A2.51,2.51,0,0,1,129.79,280.57Zm-4.13,0a1.44,1.44,0,1,0,1.45-1.55A1.43,1.43,0,0,0,125.66,280.59Z"/>
<path class="cls-21" d="M132.4,278.94c-.41,0-.69.13-.69.44,0,.86,2.7.41,2.7,2.25,0,1-.93,1.54-2,1.54a3.25,3.25,0,0,1-2.11-.72l.43-.86a2.83,2.83,0,0,0,1.72.63c.43,0,.76-.15.76-.48,0-.94-2.66-.43-2.65-2.24,0-1.05.89-1.54,1.92-1.54a3.37,3.37,0,0,1,1.87.55l-.45.89A3.16,3.16,0,0,0,132.4,278.94Z"/>
<path class="cls-21" d="M143,278v5.1h-1.25v-.94a1.83,1.83,0,0,1-1.77,1,1.76,1.76,0,0,1-1.85-1.95V278h1.25v2.83a1,1,0,0,0,1.09,1.15,1.31,1.31,0,0,0,1.28-1.46V278Z"/>
<path class="cls-21" d="M149.55,279.94v3.18H148.3V280.3a1.05,1.05,0,0,0-1.14-1.15,1.32,1.32,0,0,0-1.33,1.46v2.51h-1.24V278h1.24v1a2,2,0,0,1,1.83-1A1.79,1.79,0,0,1,149.55,279.94Z"/>
<path class="cls-21" d="M159.22,280.6a2.35,2.35,0,0,1-2.39,2.57,2,2,0,0,1-1.74-.88V285h-1.24v-7h1.24v.84a2,2,0,0,1,1.72-.88A2.39,2.39,0,0,1,159.22,280.6Zm-1.26,0a1.44,1.44,0,1,0-1.43,1.54A1.43,1.43,0,0,0,158,280.56Z"/>
<path class="cls-21" d="M163.31,283.12v-.62a2,2,0,0,1-1.65.68,1.61,1.61,0,0,1-1.78-1.58c0-1,.7-1.53,1.94-1.54h1.49v-.13c0-.59-.4-.95-1.16-.95a3,3,0,0,0-1.51.48l-.45-.86a4.08,4.08,0,0,1,2.24-.63c1.33,0,2.09.68,2.1,1.81v3.34Zm0-1.77v-.46H162c-.66,0-1,.18-1,.63s.34.71.9.71A1.26,1.26,0,0,0,163.31,281.35Z"/>
<path class="cls-21" d="M170.59,278v4.62a2.38,2.38,0,0,1-2.67,2.38,3.79,3.79,0,0,1-2.15-.68l.49-.89a2.65,2.65,0,0,0,1.6.53,1.31,1.31,0,0,0,1.49-1.32v-.6a1.82,1.82,0,0,1-1.62.8,2.25,2.25,0,0,1-2.27-2.46,2.22,2.22,0,0,1,2.23-2.42,1.89,1.89,0,0,1,1.66.8V278Zm-1.24,2.41A1.34,1.34,0,0,0,168,279a1.46,1.46,0,0,0,0,2.92A1.34,1.34,0,0,0,169.35,280.43Z"/>
<path class="cls-21" d="M177,280.57a2.69,2.69,0,1,1-2.68-2.59A2.51,2.51,0,0,1,177,280.57Zm-4.13,0a1.44,1.44,0,1,0,1.45-1.55A1.43,1.43,0,0,0,172.84,280.59Z"/>
<path class="cls-21" d="M179,282.52a1,1,0,0,1-.18.54l-.58.89h-.62l.37-.89a.63.63,0,0,1-.27-.54.64.64,0,0,1,.64-.67A.62.62,0,0,1,179,282.52Z"/>
<path class="cls-21" d="M80.72,292.45H77a1.42,1.42,0,0,0,1.46,1.17,1.9,1.9,0,0,0,1.37-.57l.67.69a2.86,2.86,0,0,1-2.15.88,2.6,2.6,0,1,1,0-5.19C80.08,289.43,80.85,290.6,80.72,292.45Zm-1.12-.83a1.22,1.22,0,0,0-1.31-1.23,1.33,1.33,0,0,0-1.36,1.23Z"/>
<path class="cls-21" d="M83.33,290.38c-.4,0-.69.14-.69.45,0,.86,2.7.41,2.7,2.24,0,1-.92,1.55-2,1.55a3.29,3.29,0,0,1-2.11-.72l.43-.86a2.84,2.84,0,0,0,1.73.62c.43,0,.75-.14.75-.47,0-.95-2.66-.43-2.65-2.24,0-1.05.9-1.54,1.93-1.54a3.44,3.44,0,0,1,1.86.54l-.44.9A3.22,3.22,0,0,0,83.33,290.38Z"/>
<path class="cls-21" d="M88.58,290.52a1.52,1.52,0,0,0,0,3A1.64,1.64,0,0,0,90,293l.77.64a2.56,2.56,0,0,1-2.21,1,2.6,2.6,0,0,1,0-5.19,2.59,2.59,0,0,1,2.13.93l-.75.72A1.74,1.74,0,0,0,88.58,290.52Z"/>
<path class="cls-21" d="M94.61,294.57V294a2,2,0,0,1-1.64.68,1.61,1.61,0,0,1-1.79-1.58c0-.95.7-1.53,1.94-1.54H94.6v-.13c0-.6-.39-.95-1.15-.95a2.9,2.9,0,0,0-1.51.48l-.45-.86a4.08,4.08,0,0,1,2.24-.63c1.33,0,2.09.68,2.1,1.81v3.34Zm0-1.77v-.46H93.32c-.66,0-1,.18-1,.63s.35.7.91.7C94,293.67,94.54,293.29,94.6,292.8Z"/>
<path class="cls-21" d="M102.19,291.39v3.18h-1.25v-2.82a1.06,1.06,0,0,0-1.13-1.16,1.34,1.34,0,0,0-1.34,1.47v2.51H97.23v-5.1h1.24v.95a2,2,0,0,1,1.83-1A1.79,1.79,0,0,1,102.19,291.39Z"/>
<path class="cls-21" d="M108.15,292.45h-3.77a1.43,1.43,0,0,0,1.46,1.17,1.92,1.92,0,0,0,1.38-.57l.66.69a2.82,2.82,0,0,1-2.14.88,2.6,2.6,0,1,1,0-5.19C107.5,289.43,108.28,290.6,108.15,292.45Zm-1.12-.83a1.22,1.22,0,0,0-1.31-1.23,1.33,1.33,0,0,0-1.36,1.23Z"/>
<path class="cls-21" d="M112.24,294.57V294a2,2,0,0,1-1.65.68,1.61,1.61,0,0,1-1.78-1.58c0-.95.7-1.53,1.94-1.54h1.48v-.13c0-.6-.39-.95-1.15-.95a3,3,0,0,0-1.52.48l-.44-.86a4.08,4.08,0,0,1,2.24-.63c1.33,0,2.09.68,2.1,1.81v3.34Zm0-1.77v-.46H111c-.66,0-1,.18-1,.63s.35.7.91.7C111.61,293.67,112.17,293.29,112.23,292.8Z"/>
<path class="cls-21" d="M122.68,291.39v3.18h-1.25v-2.82a1.06,1.06,0,0,0-1.13-1.16,1.34,1.34,0,0,0-1.34,1.47v2.51h-1.24v-5.1H119v.95a2,2,0,0,1,1.83-1A1.78,1.78,0,0,1,122.68,291.39Z"/>
<path class="cls-21" d="M128.79,289.47v5.1h-1.25v-.94a1.86,1.86,0,0,1-1.78,1,1.77,1.77,0,0,1-1.85-2v-3.19h1.25v2.83a1,1,0,0,0,1.1,1.15,1.32,1.32,0,0,0,1.28-1.46v-2.52Z"/>
<path class="cls-21" d="M134.9,292.45h-3.77a1.43,1.43,0,0,0,1.46,1.17,1.92,1.92,0,0,0,1.38-.57l.66.69a2.82,2.82,0,0,1-2.14.88,2.6,2.6,0,1,1,0-5.19C134.25,289.43,135,290.6,134.9,292.45Zm-1.12-.83a1.22,1.22,0,0,0-1.31-1.23,1.33,1.33,0,0,0-1.36,1.23Z"/>
<path class="cls-21" d="M137.51,290.38c-.4,0-.69.14-.69.45,0,.86,2.7.41,2.7,2.24,0,1-.93,1.55-2,1.55a3.25,3.25,0,0,1-2.11-.72l.43-.86a2.84,2.84,0,0,0,1.72.62c.43,0,.76-.14.76-.47,0-.95-2.66-.43-2.65-2.24,0-1.05.89-1.54,1.92-1.54a3.45,3.45,0,0,1,1.87.54l-.45.9A3.15,3.15,0,0,0,137.51,290.38Z"/>
<path class="cls-21" d="M143.56,294.26a2.53,2.53,0,0,1-1.27.37,1.4,1.4,0,0,1-1.5-1.53v-2.52h-.72v-.9h.73v-1.4H142v1.4h1.46v.9H142v2.3c0,.49.2.65.53.65a1.82,1.82,0,0,0,.73-.21Z"/>
<path class="cls-21" d="M147.51,289.42v1.2a1.47,1.47,0,0,0-1.73,1.49v2.46h-1.24v-5.1h1.24v1A1.84,1.84,0,0,1,147.51,289.42Z"/>
<path class="cls-21" d="M153.29,292a2.69,2.69,0,1,1-2.68-2.59A2.5,2.5,0,0,1,153.29,292Zm-4.12,0a1.44,1.44,0,1,0,1.44-1.54A1.43,1.43,0,0,0,149.17,292Z"/>
<path class="cls-21" d="M164.26,295.33a2.86,2.86,0,0,1-1.85.74,2.5,2.5,0,0,1-2.13-1.44,3.39,3.39,0,1,1,3.59-3.4,3.35,3.35,0,0,1-2.33,3.21,1.42,1.42,0,0,0,1,.56,2.18,2.18,0,0,0,1.2-.53Zm-3.92-1.85a2.24,2.24,0,1,0-2.27-2.25A2.26,2.26,0,0,0,160.34,293.48Z"/>
<path class="cls-21" d="M169.25,294.57l-1.16-2h-1.74v2h-1.28V287.9h2.78c1.73,0,2.71.83,2.71,2.29a2.18,2.18,0,0,1-1.32,2.17l1.46,2.21Zm-2.9-3.09h1.5c1,0,1.49-.41,1.49-1.25s-.53-1.22-1.49-1.22h-1.5Z"/>
<rect class="cls-1" x="505" width="252" height="612"/>
<path class="cls-21" d="M597,461c0,1.71-1.08,2.7-3,2.7h-1.63v2.2H591v-7.47H594C595.9,458.46,597,459.38,597,461Zm-1.36,0c0-.92-.61-1.36-1.67-1.36h-1.56v2.76H594C595,462.47,595.62,462,595.62,461.07Z"/>
<path class="cls-21" d="M601.49,465.93v-.69a2.26,2.26,0,0,1-1.85.76,1.8,1.8,0,0,1-2-1.78c0-1.05.78-1.71,2.17-1.72h1.67v-.15c0-.66-.44-1.05-1.29-1.05a3.33,3.33,0,0,0-1.7.53l-.5-1a4.57,4.57,0,0,1,2.51-.7c1.49,0,2.33.75,2.34,2l0,3.74Zm0-2v-.52H600c-.74,0-1.08.21-1.08.71s.38.79,1,.79A1.41,1.41,0,0,0,601.48,464Z"/>
<path class="cls-21" d="M609.64,460.22v5.17c0,1.63-1.19,2.67-3,2.67a4.23,4.23,0,0,1-2.41-.76l.55-1a2.93,2.93,0,0,0,1.78.59c1,0,1.68-.56,1.68-1.47v-.67a2.06,2.06,0,0,1-1.81.89,2.52,2.52,0,0,1-2.55-2.75,2.49,2.49,0,0,1,2.5-2.71,2.12,2.12,0,0,1,1.86.89v-.85Zm-1.39,2.7a1.51,1.51,0,0,0-1.52-1.63,1.63,1.63,0,0,0,0,3.26A1.51,1.51,0,0,0,608.25,462.92Z"/>
<path class="cls-21" d="M614.65,465.93v-.69a2.24,2.24,0,0,1-1.85.76,1.8,1.8,0,0,1-2-1.78c0-1.05.78-1.71,2.16-1.72h1.67v-.15c0-.66-.44-1.05-1.29-1.05a3.36,3.36,0,0,0-1.7.53l-.5-1a4.57,4.57,0,0,1,2.51-.7c1.49,0,2.34.75,2.35,2v3.74Zm0-2v-.52H613.2c-.74,0-1.08.21-1.08.71s.38.79,1,.79A1.39,1.39,0,0,0,614.64,464Z"/>
<path class="cls-21" d="M624.16,465.93v-.69a2.26,2.26,0,0,1-1.85.76,1.8,1.8,0,0,1-2-1.78c0-1.05.77-1.71,2.16-1.72h1.67v-.15c0-.66-.44-1.05-1.29-1.05a3.36,3.36,0,0,0-1.7.53l-.5-1a4.57,4.57,0,0,1,2.51-.7c1.49,0,2.34.75,2.35,2v3.74Zm0-2v-.52h-1.44c-.74,0-1.08.21-1.08.71s.38.79,1,.79A1.4,1.4,0,0,0,624.15,464Z"/>
<path class="cls-21" d="M632.6,460.22V468h-1.39v-3a2.17,2.17,0,0,1-1.92,1,2.69,2.69,0,0,1-2.72-2.94,2.65,2.65,0,0,1,2.69-2.89,2.2,2.2,0,0,1,2,1v-.94Zm-1.39,2.87a1.61,1.61,0,0,0-1.62-1.74,1.64,1.64,0,0,0-1.63,1.74,1.62,1.62,0,0,0,1.63,1.74A1.6,1.6,0,0,0,631.21,463.09Z"/>
<path class="cls-21" d="M639.66,460.22v5.71h-1.4v-1.05a2.06,2.06,0,0,1-2,1.11,2,2,0,0,1-2.07-2.19v-3.58h1.39v3.17a1.15,1.15,0,0,0,1.23,1.28,1.47,1.47,0,0,0,1.43-1.63v-2.82Z"/>
<path class="cls-21" d="M643.82,458.36l-1.32,1.1h-1.18l1.13-1.65Zm-1,1.86v5.71H641.4v-5.71Z"/>
<path class="cls-21" d="M650.15,461.39a1.71,1.71,0,0,0,0,3.4,1.82,1.82,0,0,0,1.53-.67l.87.71a2.87,2.87,0,0,1-2.48,1.16,2.91,2.91,0,0,1,0-5.81,2.9,2.9,0,0,1,2.39,1l-.84.8A2,2,0,0,0,650.15,461.39Z"/>
<path class="cls-21" d="M659,463.07a3,3,0,1,1-3-2.89A2.81,2.81,0,0,1,659,463.07Zm-4.62,0a1.61,1.61,0,1,0,1.62-1.73A1.6,1.6,0,0,0,654.41,463.09Z"/>
<path class="cls-21" d="M665.8,462.37v3.56h-1.4v-3.16a1.18,1.18,0,0,0-1.27-1.29,1.49,1.49,0,0,0-1.5,1.64v2.81h-1.39v-5.71h1.39v1.07a2.17,2.17,0,0,1,2-1.12A2,2,0,0,1,665.8,462.37Z"/>
<path class="cls-22" d="M623.13,569.75a1.63,1.63,0,0,1,1.63,1.62V583a1.63,1.63,0,0,1-1.63,1.63H574.75a1.63,1.63,0,0,1-1.63-1.63V571.37a1.63,1.63,0,0,1,1.63-1.62h48.38"/>
<path class="cls-23" d="M623.13,584.9H574.75a1.92,1.92,0,0,1-1.92-1.92V571.37a1.92,1.92,0,0,1,1.92-1.91h48.38a1.92,1.92,0,0,1,1.92,1.91V583A1.92,1.92,0,0,1,623.13,584.9ZM574.75,570a1.33,1.33,0,0,0-1.33,1.33V583a1.33,1.33,0,0,0,1.33,1.34h48.38a1.34,1.34,0,0,0,1.34-1.34V571.37a1.34,1.34,0,0,0-1.34-1.33Z"/>
<path class="cls-23" d="M599.19,575.92a1.65,1.65,0,1,0,1.65,1.65A1.63,1.63,0,0,0,599.19,575.92Zm0,2.65a1,1,0,1,1,.93-1A1,1,0,0,1,599.19,578.57Zm-3.61-2.65a1.65,1.65,0,1,0,1.65,1.65A1.62,1.62,0,0,0,595.58,575.92Zm0,2.65a1,1,0,1,1,.93-1A1,1,0,0,1,595.58,578.57Zm-4.29-2.14v.7H593a1.5,1.5,0,0,1-.38.87,1.72,1.72,0,0,1-1.3.52,1.86,1.86,0,0,1,0-3.72,1.78,1.78,0,0,1,1.26.5l.5-.49a2.46,2.46,0,0,0-1.76-.71,2.56,2.56,0,1,0,0,5.11,2.36,2.36,0,0,0,1.79-.71,2.31,2.31,0,0,0,.6-1.64,2.72,2.72,0,0,0,0-.43Zm17.54.54a1.53,1.53,0,0,0-1.41-1.05,1.56,1.56,0,0,0-1.55,1.65,1.64,1.64,0,0,0,3,.91l-.56-.37a.94.94,0,0,1-.81.46.85.85,0,0,1-.8-.5l2.21-.91Zm-2.24.55a.9.9,0,0,1,.86-1,.64.64,0,0,1,.61.35Zm-1.79,1.59h.72v-4.83h-.72Zm-1.19-2.82h0a1.18,1.18,0,0,0-.87-.37,1.65,1.65,0,0,0,0,3.29,1.14,1.14,0,0,0,.87-.37h0v.24c0,.63-.33,1-.88,1a.92.92,0,0,1-.83-.58l-.63.26a1.56,1.56,0,0,0,1.46,1A1.51,1.51,0,0,0,604.3,579v-3h-.69Zm-.83,2.28a1,1,0,0,1,0-2,1,1,0,0,1,0,2Zm9.44-4.29h-1.73v4.83h.72v-1.83h1a1.5,1.5,0,1,0,0-3Zm0,2.33h-1V575h1a.83.83,0,1,1,0,1.66Zm4.46-.7a1.37,1.37,0,0,0-1.29.74l.64.27a.78.78,0,0,1,1.42.27v0a1.52,1.52,0,0,0-.75-.19c-.69,0-1.39.38-1.39,1.09a1.12,1.12,0,0,0,1.2,1.07,1,1,0,0,0,.92-.48h0v.38h.7v-1.86A1.33,1.33,0,0,0,616.7,575.91Zm-.09,2.65c-.23,0-.56-.11-.56-.41s.41-.51.76-.51a1.31,1.31,0,0,1,.66.16A.86.86,0,0,1,616.61,578.56Zm4.1-2.54-.83,2.1h0L619,576h-.78l1.29,2.93-.74,1.63h.76l2-4.56Zm-6.5,3.09h.72v-4.83h-.72Z"/>
<path class="cls-23" d="M576.91,572.63a.77.77,0,0,0,0,.27v8.56a.77.77,0,0,0,0,.27l4.55-4.55Z"/>
<path class="cls-23" d="M581.9,577.18l1.41,1.41,1.8-1c.2-.11.31-.25.31-.39s-.11-.28-.31-.39l-1.8-1Z"/>
<path class="cls-23" d="M577.17,582a.62.62,0,0,0,.39-.1l5.44-3.09-1.32-1.32Z"/>
<path class="cls-23" d="M577.17,572.4l4.51,4.51,1.32-1.32-5.44-3.09A.62.62,0,0,0,577.17,572.4Z"/>
<path class="cls-22" d="M635.18,584.48h-.39a8.12,8.12,0,0,1-.82-.06,3.89,3.89,0,0,1-.73-.21,2.79,2.79,0,0,1-.61-.4,2,2,0,0,1-.44-.54,1.89,1.89,0,0,1-.24-.64,4,4,0,0,1-.07-.73c0-.08,0-.35,0-.35v-8.94s0-.27,0-.35a4,4,0,0,1,.07-.72,1.89,1.89,0,0,1,.24-.64,1.94,1.94,0,0,1,.44-.55,2.44,2.44,0,0,1,.61-.39,2.93,2.93,0,0,1,.73-.21,6.48,6.48,0,0,1,.82-.07h45.74a6.48,6.48,0,0,1,.82.07,2.93,2.93,0,0,1,.73.21,2.44,2.44,0,0,1,.61.39,1.94,1.94,0,0,1,.44.55,1.92,1.92,0,0,1,.24.63,3.75,3.75,0,0,1,.07.73c0,.11,0,.23,0,.35v8.94c0,.12,0,.24,0,.36a3.58,3.58,0,0,1-.07.72,2.06,2.06,0,0,1-.24.64,1.9,1.9,0,0,1-.44.54,2.44,2.44,0,0,1-.61.39,2.82,2.82,0,0,1-.73.22,8.12,8.12,0,0,1-.82.06H635.18Z"/>
<g id="_Group_7" data-name="&lt;Group&gt;">
    <g id="_Group_8" data-name="&lt;Group&gt;">
        <g id="_Group_9" data-name="&lt;Group&gt;">
            <path id="_Path_5" data-name="&lt;Path&gt;" class="cls-23" d="M641.94,576.73a2.36,2.36,0,0,1,1.11-2,2.39,2.39,0,0,0-1.89-1c-.79-.08-1.56.48-2,.48s-1-.47-1.71-.46a2.54,2.54,0,0,0-2.12,1.29c-.91,1.59-.23,3.92.65,5.2.43.63,1,1.33,1.62,1.3s.9-.42,1.69-.42,1,.42,1.7.41,1.15-.63,1.57-1.27a5.14,5.14,0,0,0,.72-1.46A2.26,2.26,0,0,1,641.94,576.73Z"/>
            <path id="_Path_6" data-name="&lt;Path&gt;" class="cls-23" d="M640.65,572.9a.93.93,0,1,0-1-.87,2.21,2.21,0,0,0-.55,1.59A1.94,1.94,0,0,0,640.65,572.9Z"/>
        </g>
    </g>
    <path class="cls-23" d="M649.81,578.09h-2.15l-.52,1.53h-.91l2-5.65h1l2,5.65h-.93Zm-1.93-.7h1.71l-.84-2.48h0Z"/>
    <path class="cls-23" d="M655.66,577.56c0,1.28-.68,2.1-1.72,2.1a1.39,1.39,0,0,1-1.29-.72h0v2h-.85V575.5h.82v.68h0a1.45,1.45,0,0,1,1.31-.72C655,575.46,655.66,576.28,655.66,577.56Zm-.87,0c0-.84-.43-1.38-1.08-1.38s-1.09.56-1.09,1.38.44,1.38,1.09,1.38S654.79,578.4,654.79,577.56Z"/>
    <path class="cls-23" d="M660.2,577.56c0,1.28-.69,2.1-1.72,2.1a1.4,1.4,0,0,1-1.3-.72h0v2h-.84V575.5h.82v.68h0a1.47,1.47,0,0,1,1.31-.72C659.51,575.46,660.2,576.28,660.2,577.56Zm-.87,0c0-.84-.43-1.38-1.09-1.38s-1.08.56-1.08,1.38.43,1.38,1.08,1.38S659.33,578.4,659.33,577.56Z"/>
    <path class="cls-23" d="M663.19,578c.07.56.61.93,1.35.93s1.23-.37,1.23-.87-.31-.7-1-.88L664,577c-1-.25-1.52-.73-1.52-1.52,0-1,.85-1.65,2-1.65s2,.67,2,1.65h-.85c-.05-.57-.52-.91-1.2-.91s-1.15.35-1.15.85.3.63,1,.81l.62.16c1.16.27,1.64.74,1.64,1.56,0,1.06-.84,1.72-2.18,1.72s-2.1-.64-2.15-1.67Z"/>
    <path class="cls-23" d="M668.49,574.52v1h.78v.67h-.78v2.27c0,.35.16.52.5.52l.28,0v.66a2,2,0,0,1-.47,0c-.84,0-1.16-.31-1.16-1.11v-2.36H667v-.67h.6v-1Z"/>
    <path class="cls-23" d="M669.73,577.56a2,2,0,1,1,1.95,2.11A1.89,1.89,0,0,1,669.73,577.56Zm3,0c0-.89-.41-1.42-1.09-1.42s-1.09.53-1.09,1.42.4,1.41,1.09,1.41S672.77,578.45,672.77,577.56Z"/>
    <path class="cls-23" d="M674.33,575.5h.81v.7h0a1,1,0,0,1,1-.74,1.12,1.12,0,0,1,.29,0v.79a1.16,1.16,0,0,0-.38,0,.85.85,0,0,0-.88.94v2.45h-.85Z"/>
    <path class="cls-23" d="M680.34,578.41a1.66,1.66,0,0,1-1.78,1.26,1.87,1.87,0,0,1-1.94-2.09,1.9,1.9,0,0,1,1.91-2.13,1.81,1.81,0,0,1,1.85,2v.29h-2.91v.05a1.08,1.08,0,0,0,1.11,1.17.94.94,0,0,0,.95-.58Zm-2.86-1.23h2.06a1,1,0,0,0-1-1A1,1,0,0,0,677.48,577.18Z"/>
</g>
<path class="cls-23" d="M679.66,584.73H634.78a6.92,6.92,0,0,1-.85-.07,3.16,3.16,0,0,1-.79-.23,2.68,2.68,0,0,1-.67-.44,2.19,2.19,0,0,1-.49-.6,2.09,2.09,0,0,1-.27-.71,4.68,4.68,0,0,1-.08-.77v-9.65a4.68,4.68,0,0,1,.08-.77,2.47,2.47,0,0,1,.26-.72,2.39,2.39,0,0,1,.5-.6,2.48,2.48,0,0,1,.67-.43,2.66,2.66,0,0,1,.79-.23,7.08,7.08,0,0,1,.85-.07h45.76a6.92,6.92,0,0,1,.85.07,2.66,2.66,0,0,1,.79.23,2.48,2.48,0,0,1,.67.43,2.42,2.42,0,0,1,.5.6,2.58,2.58,0,0,1,.26.72,5.16,5.16,0,0,1,.08.77v9.65a5.3,5.3,0,0,1-.08.77,2.25,2.25,0,0,1-.76,1.31,2.51,2.51,0,0,1-.67.44,3.29,3.29,0,0,1-.79.23,7.08,7.08,0,0,1-.85.07h-.88Zm-47.54-3.18v.35a4.48,4.48,0,0,0,.07.68,1.77,1.77,0,0,0,.21.57,2,2,0,0,0,.39.48,2.3,2.3,0,0,0,.56.35,2.55,2.55,0,0,0,.66.2,7.81,7.81,0,0,0,.78.06h45.73a7.57,7.57,0,0,0,.79-.06,2.76,2.76,0,0,0,.67-.2,2.44,2.44,0,0,0,.55-.35,2,2,0,0,0,.39-.48,1.77,1.77,0,0,0,.21-.57,4.13,4.13,0,0,0,.07-.68v-9.63a4.14,4.14,0,0,0-.07-.69,1.8,1.8,0,0,0-.21-.56,2,2,0,0,0-.39-.48,2.17,2.17,0,0,0-.55-.36,2.88,2.88,0,0,0-.67-.19,5.65,5.65,0,0,0-.78-.06H634.79a5.54,5.54,0,0,0-.78.06,2.88,2.88,0,0,0-.67.19,2.17,2.17,0,0,0-.55.36,1.79,1.79,0,0,0-.39.48,1.77,1.77,0,0,0-.21.57,4.48,4.48,0,0,0-.07.68v9.28Z"/>
<path class="cls-21" d="M575.49,273.75c0,1.52-1,2.41-2.64,2.41h-1.46v2h-1.28v-6.67h2.74C574.52,271.45,575.49,272.28,575.49,273.75Zm-1.21,0c0-.82-.55-1.22-1.5-1.22h-1.39V275h1.39C573.73,275,574.28,274.62,574.28,273.78Z"/>
<path class="cls-21" d="M579.51,278.12v-.62a2,2,0,0,1-1.65.68,1.61,1.61,0,0,1-1.78-1.58c0-1,.7-1.53,1.94-1.54h1.48v-.13c0-.59-.39-.95-1.15-.95a3.06,3.06,0,0,0-1.52.48l-.44-.86a4.08,4.08,0,0,1,2.24-.63c1.33,0,2.08.68,2.09,1.81v3.34Zm0-1.77v-.46h-1.28c-.66,0-1,.18-1,.63s.35.71.91.71A1.24,1.24,0,0,0,579.5,276.35Z"/>
<path class="cls-21" d="M585.1,273v1.2a1.47,1.47,0,0,0-1.73,1.49v2.46h-1.24V273h1.24v1A1.86,1.86,0,0,1,585.1,273Z"/>
<path class="cls-21" d="M588.81,278.12v-.62a2,2,0,0,1-1.65.68,1.61,1.61,0,0,1-1.79-1.58c0-1,.7-1.53,1.94-1.54h1.49v-.13c0-.59-.39-.95-1.16-.95a3,3,0,0,0-1.51.48l-.45-.86a4.08,4.08,0,0,1,2.24-.63c1.33,0,2.09.68,2.1,1.81v3.34Zm0-1.77v-.46h-1.29c-.66,0-1,.18-1,.63s.35.71.91.71A1.26,1.26,0,0,0,588.8,276.35Z"/>
<path class="cls-21" d="M598.85,276h-3.77a1.43,1.43,0,0,0,1.46,1.16,1.92,1.92,0,0,0,1.38-.57l.66.69a2.8,2.8,0,0,1-2.14.88,2.6,2.6,0,1,1,0-5.19C598.2,273,599,274.15,598.85,276Zm-1.12-.83a1.21,1.21,0,0,0-1.31-1.23,1.33,1.33,0,0,0-1.36,1.23Z"/>
<path class="cls-21" d="M604.89,274.94v3.18h-1.25V275.3a1.05,1.05,0,0,0-1.13-1.15,1.33,1.33,0,0,0-1.34,1.46v2.51h-1.24V273h1.24v1a2,2,0,0,1,1.83-1A1.79,1.79,0,0,1,604.89,274.94Z"/>
<path class="cls-21" d="M606.67,273,608,276.9l1.31-3.88h1.25l-1.95,5.1h-1.28l-2-5.09Z"/>
<path class="cls-21" d="M612.56,271.56a.67.67,0,1,1-.67-.69A.65.65,0,0,1,612.56,271.56Zm0,1.46v5.1h-1.24V273Z"/>
<path class="cls-21" d="M617.06,278.12v-.62a2,2,0,0,1-1.65.68,1.61,1.61,0,0,1-1.78-1.58c0-1,.7-1.53,1.94-1.54h1.48v-.13c0-.59-.39-.95-1.15-.95a3.06,3.06,0,0,0-1.52.48l-.44-.86a4.08,4.08,0,0,1,2.24-.63c1.33,0,2.09.68,2.1,1.81v3.34Zm0-1.77v-.46h-1.28c-.66,0-1,.18-1,.63s.35.71.91.71A1.24,1.24,0,0,0,617.05,276.35Z"/>
<path class="cls-21" d="M622.66,273v1.2a1.48,1.48,0,0,0-1.74,1.49v2.46h-1.24V273h1.24v1A1.87,1.87,0,0,1,622.66,273Z"/>
<path class="cls-21" d="M628.48,274.94v3.18h-1.25V275.3a1.05,1.05,0,0,0-1.13-1.15,1.33,1.33,0,0,0-1.34,1.46v2.51h-1.24V273h1.24v1a2,2,0,0,1,1.84-1A1.78,1.78,0,0,1,628.48,274.94Z"/>
<path class="cls-21" d="M634.79,275.57a2.69,2.69,0,1,1-2.68-2.59A2.51,2.51,0,0,1,634.79,275.57Zm-4.13,0a1.44,1.44,0,1,0,1.45-1.55A1.43,1.43,0,0,0,630.66,275.59Z"/>
<path class="cls-21" d="M637.4,273.94c-.41,0-.69.13-.69.44,0,.86,2.7.41,2.7,2.25,0,1-.93,1.54-2,1.54a3.25,3.25,0,0,1-2.11-.72l.43-.86a2.83,2.83,0,0,0,1.72.63c.43,0,.76-.15.76-.48,0-.94-2.66-.43-2.66-2.24,0-1.05.9-1.54,1.93-1.54a3.39,3.39,0,0,1,1.87.55l-.45.89A3.16,3.16,0,0,0,637.4,273.94Z"/>
<path class="cls-21" d="M648,273v5.1h-1.25v-.94a1.83,1.83,0,0,1-1.77,1,1.76,1.76,0,0,1-1.85-1.95V273h1.25v2.83a1,1,0,0,0,1.09,1.15,1.31,1.31,0,0,0,1.28-1.46V273Z"/>
<path class="cls-21" d="M654.55,274.94v3.18H653.3V275.3a1.05,1.05,0,0,0-1.14-1.15,1.32,1.32,0,0,0-1.33,1.46v2.51h-1.24V273h1.24v1a2,2,0,0,1,1.83-1A1.79,1.79,0,0,1,654.55,274.94Z"/>
<path class="cls-21" d="M664.22,275.6a2.35,2.35,0,0,1-2.39,2.57,2,2,0,0,1-1.74-.88V280h-1.24v-7h1.24v.84a1.94,1.94,0,0,1,1.72-.88A2.39,2.39,0,0,1,664.22,275.6Zm-1.26,0a1.44,1.44,0,1,0-1.43,1.54A1.43,1.43,0,0,0,663,275.56Z"/>
<path class="cls-21" d="M668.31,278.12v-.62a2,2,0,0,1-1.65.68,1.61,1.61,0,0,1-1.78-1.58c0-1,.7-1.53,1.94-1.54h1.48v-.13c0-.59-.39-.95-1.15-.95a3.06,3.06,0,0,0-1.52.48l-.44-.86a4.08,4.08,0,0,1,2.24-.63c1.33,0,2.09.68,2.1,1.81v3.34Zm0-1.77v-.46H667c-.66,0-1,.18-1,.63s.35.71.91.71A1.24,1.24,0,0,0,668.3,276.35Z"/>
<path class="cls-21" d="M675.59,273v4.62a2.38,2.38,0,0,1-2.67,2.38,3.79,3.79,0,0,1-2.15-.68l.49-.89a2.65,2.65,0,0,0,1.6.53,1.31,1.31,0,0,0,1.49-1.32v-.6a1.82,1.82,0,0,1-1.62.8,2.25,2.25,0,0,1-2.27-2.46,2.22,2.22,0,0,1,2.23-2.42,1.89,1.89,0,0,1,1.66.8V273Zm-1.24,2.41a1.36,1.36,0,1,0-1.35,1.46A1.34,1.34,0,0,0,674.35,275.43Z"/>
<path class="cls-21" d="M682,275.57a2.69,2.69,0,1,1-2.68-2.59A2.51,2.51,0,0,1,682,275.57Zm-4.13,0a1.44,1.44,0,1,0,1.45-1.55A1.43,1.43,0,0,0,677.84,275.59Z"/>
<path class="cls-21" d="M684,277.52a1,1,0,0,1-.18.54l-.58.89h-.62l.37-.89a.63.63,0,0,1-.27-.54.64.64,0,0,1,.64-.67A.63.63,0,0,1,684,277.52Z"/>
<path class="cls-21" d="M585.72,287.45H582a1.42,1.42,0,0,0,1.46,1.17,1.9,1.9,0,0,0,1.37-.57l.67.69a2.86,2.86,0,0,1-2.15.88,2.6,2.6,0,1,1,0-5.19C585.08,284.43,585.85,285.6,585.72,287.45Zm-1.12-.83a1.22,1.22,0,0,0-1.31-1.23,1.33,1.33,0,0,0-1.36,1.23Z"/>
<path class="cls-21" d="M588.33,285.38c-.4,0-.69.14-.69.45,0,.86,2.7.41,2.7,2.24,0,1-.92,1.55-2,1.55a3.27,3.27,0,0,1-2.11-.72l.43-.86a2.84,2.84,0,0,0,1.73.62c.43,0,.75-.14.75-.47,0-.95-2.66-.43-2.65-2.24,0-1.05.9-1.54,1.93-1.54a3.44,3.44,0,0,1,1.86.54l-.44.9A3.22,3.22,0,0,0,588.33,285.38Z"/>
<path class="cls-21" d="M593.58,285.52a1.52,1.52,0,0,0,0,3A1.64,1.64,0,0,0,595,288l.77.64a2.56,2.56,0,0,1-2.21,1,2.6,2.6,0,0,1,0-5.19,2.59,2.59,0,0,1,2.13.93l-.75.72A1.74,1.74,0,0,0,593.58,285.52Z"/>
<path class="cls-21" d="M599.61,289.57V289a2,2,0,0,1-1.65.68,1.61,1.61,0,0,1-1.78-1.58c0-.95.7-1.53,1.94-1.54h1.48v-.13c0-.6-.39-.95-1.15-.95a3,3,0,0,0-1.52.48l-.44-.86a4.08,4.08,0,0,1,2.24-.63c1.33,0,2.09.68,2.1,1.81v3.34Zm0-1.77v-.46h-1.28c-.66,0-1,.18-1,.63s.35.7.91.7C599,288.67,599.54,288.29,599.6,287.8Z"/>
<path class="cls-21" d="M607.19,286.39v3.18h-1.25v-2.82a1.06,1.06,0,0,0-1.14-1.16,1.33,1.33,0,0,0-1.33,1.47v2.51h-1.24v-5.1h1.24v.95a2,2,0,0,1,1.83-1A1.79,1.79,0,0,1,607.19,286.39Z"/>
<path class="cls-21" d="M613.15,287.45h-3.77a1.43,1.43,0,0,0,1.46,1.17,1.92,1.92,0,0,0,1.38-.57l.66.69a2.83,2.83,0,0,1-2.14.88,2.6,2.6,0,1,1,0-5.19C612.5,284.43,613.28,285.6,613.15,287.45Zm-1.12-.83a1.22,1.22,0,0,0-1.31-1.23,1.33,1.33,0,0,0-1.36,1.23Z"/>
<path class="cls-21" d="M617.24,289.57V289a2,2,0,0,1-1.65.68,1.61,1.61,0,0,1-1.78-1.58c0-.95.7-1.53,1.94-1.54h1.48v-.13c0-.6-.39-.95-1.15-.95a3,3,0,0,0-1.52.48l-.44-.86a4.08,4.08,0,0,1,2.24-.63c1.33,0,2.09.68,2.1,1.81v3.34Zm0-1.77v-.46H616c-.66,0-1,.18-1,.63s.35.7.91.7C616.61,288.67,617.17,288.29,617.23,287.8Z"/>
<path class="cls-21" d="M627.68,286.39v3.18h-1.25v-2.82a1.06,1.06,0,0,0-1.13-1.16,1.34,1.34,0,0,0-1.34,1.47v2.51h-1.24v-5.1H624v.95a2,2,0,0,1,1.83-1A1.78,1.78,0,0,1,627.68,286.39Z"/>
<path class="cls-21" d="M633.79,284.47v5.1h-1.25v-.94a1.87,1.87,0,0,1-1.78,1,1.77,1.77,0,0,1-1.85-2v-3.19h1.25v2.83a1,1,0,0,0,1.1,1.15,1.32,1.32,0,0,0,1.28-1.46v-2.52Z"/>
<path class="cls-21" d="M639.9,287.45h-3.77a1.43,1.43,0,0,0,1.46,1.17,1.92,1.92,0,0,0,1.38-.57l.66.69a2.83,2.83,0,0,1-2.14.88,2.6,2.6,0,1,1,0-5.19C639.25,284.43,640,285.6,639.9,287.45Zm-1.12-.83a1.22,1.22,0,0,0-1.31-1.23,1.33,1.33,0,0,0-1.36,1.23Z"/>
<path class="cls-21" d="M642.51,285.38c-.4,0-.69.14-.69.45,0,.86,2.7.41,2.7,2.24,0,1-.93,1.55-2,1.55a3.25,3.25,0,0,1-2.11-.72l.43-.86a2.81,2.81,0,0,0,1.72.62c.43,0,.76-.14.76-.47,0-.95-2.66-.43-2.65-2.24,0-1.05.89-1.54,1.92-1.54a3.45,3.45,0,0,1,1.87.54l-.45.9A3.15,3.15,0,0,0,642.51,285.38Z"/>
<path class="cls-21" d="M648.56,289.26a2.53,2.53,0,0,1-1.27.37,1.4,1.4,0,0,1-1.5-1.53v-2.52h-.72v-.9h.73v-1.4H647v1.4h1.46v.9H647v2.3c0,.49.2.65.53.65a1.82,1.82,0,0,0,.73-.21Z"/>
<path class="cls-21" d="M652.51,284.42v1.2a1.47,1.47,0,0,0-1.73,1.49v2.46h-1.24v-5.1h1.24v1A1.84,1.84,0,0,1,652.51,284.42Z"/>
<path class="cls-21" d="M658.29,287a2.69,2.69,0,1,1-2.68-2.59A2.5,2.5,0,0,1,658.29,287Zm-4.12,0a1.44,1.44,0,1,0,1.44-1.54A1.43,1.43,0,0,0,654.17,287Z"/>
<path class="cls-21" d="M669.26,290.33a2.86,2.86,0,0,1-1.85.74,2.5,2.5,0,0,1-2.13-1.44,3.39,3.39,0,1,1,3.59-3.4,3.35,3.35,0,0,1-2.33,3.21,1.42,1.42,0,0,0,1,.56,2.18,2.18,0,0,0,1.2-.53Zm-3.92-1.85a2.24,2.24,0,1,0-2.27-2.25A2.26,2.26,0,0,0,665.34,288.48Z"/>
<path class="cls-21" d="M674.25,289.57l-1.16-2h-1.74v2h-1.28V282.9h2.78c1.73,0,2.71.83,2.71,2.29a2.18,2.18,0,0,1-1.32,2.17l1.46,2.21Zm-2.9-3.09h1.5c1,0,1.49-.41,1.49-1.25s-.53-1.22-1.49-1.22h-1.5Z"/>
<rect class="cls-1" x="505" y="0.4" width="252" height="252"/>
<rect class="cls-17" x="609.07" y="485.03" width="38.61" height="38.61" rx="8.45" ry="8.45"/>
<rect class="cls-27" x="610.38" y="488.32" width="29.23" height="18.73" rx="5.24" ry="5.24" transform="translate(-123.23 217.56) rotate(-18.01)"/>
<rect class="cls-28" x="616.11" y="490.73" width="29.23" height="19.48" rx="5.34" ry="5.34" transform="translate(-64.9 95.02) rotate(-8.2)"/>
<path class="cls-29" d="M640,497.65v16.68a9.35,9.35,0,0,1-9.34,9.35H617.51a8.45,8.45,0,0,1-8.45-8.45V493.8h0a3.91,3.91,0,0,1,.49,0h26.58a3.88,3.88,0,0,1,3.77,2.94A4.17,4.17,0,0,1,640,497.65Z"/>
<path class="cls-17" d="M635.29,493H609.66a5.65,5.65,0,0,0-.59,0v1.51a3.7,3.7,0,0,1,.59-.05h25.63a3.24,3.24,0,0,1,3.24,3.24v.16H640v-.16A4.74,4.74,0,0,0,635.29,493Z"/>
<path class="cls-1" d="M647.63,493.55v21.68a8.44,8.44,0,0,1-8.44,8.45H617.51a8.45,8.45,0,0,1-8.45-8.45V493.55c0-.11,0-.23,0-.34a.86.86,0,0,1,0-.16,8.44,8.44,0,0,1,8.43-7.95h21.68A8.44,8.44,0,0,1,647.63,493.55Z"/>
<path class="cls-17" d="M640,506.05h0c0-1.33,0-2.67,0-4s0-2.68,0-4v-.18h-8a7,7,0,0,0-1,.07,7.69,7.69,0,0,0-2.76.88,8.08,8.08,0,0,0-4.22,8.39,7.66,7.66,0,0,0,1.7,3.79,8.39,8.39,0,0,0,3.59,2.56,9.19,9.19,0,0,0,3.2.53h1.92c.34,0,.35,0,.36.35a1.3,1.3,0,0,1-.94,1.26,1.26,1.26,0,0,1-1.44-.61c0-.08-.09-.1-.18,0l-1,.51-3.12,1.58c-.11.06-.11.06,0,.16a6.89,6.89,0,0,0,5.55,2.38,5.94,5.94,0,0,0,1.77-.32,6.78,6.78,0,0,0,4.46-4.58,2.6,2.6,0,0,0,.14-.66c0-.31,0-.61,0-.91Zm-8,2.6a2.71,2.71,0,1,1,0-5.42,2.71,2.71,0,1,1,0,5.42Z"/>
<polygon class="cls-21" points="665.73 530.84 663.02 539.03 660.31 530.87 654.9 530.87 660.35 547.31 658.26 552.74 663.68 552.74 665.76 547.31 668.43 539.02 671.13 530.88 671.14 530.84 665.73 530.84"/>
<rect class="cls-21" x="645.61" y="525.37" width="5.42" height="21.86"/>
<path class="cls-21" d="M625.39,539a8.21,8.21,0,0,0,8.22,8.19h8.21V530.84h-8.21A8.21,8.21,0,0,0,625.39,539Zm11,0a2.74,2.74,0,1,1-2.74-2.73A2.73,2.73,0,0,1,636.4,539Z"/>
<path class="cls-21" d="M616.2,539.06a2.74,2.74,0,0,1-2.74,2.73h0a2.73,2.73,0,0,1-2.73-2.73v-8.19h-5.48v8.2a8.22,8.22,0,0,0,16.43,0v-8.2H616.2Z"/>
<path class="cls-21" d="M593.4,530.84a8.22,8.22,0,0,0-8.21,8.49A8,8,0,0,0,587.8,545a8.6,8.6,0,0,0,5.6,2.27h2.73a1.14,1.14,0,0,1,0,.37,1.27,1.27,0,0,1-1.27,1.28,1.29,1.29,0,0,1-1.18-.77h0l-4.43,2.24a7,7,0,0,0,12.18-3V530.85Zm2.73,8.37a2.73,2.73,0,0,1-5.22.95,2.62,2.62,0,0,1-.24-1.12,2.74,2.74,0,0,1,5.47,0A1,1,0,0,1,596.13,539.21Z"/>
<rect class="cls-17" x="363.64" y="29.01" width="38.61" height="38.61" rx="8.45" ry="8.45"/>
<rect class="cls-30" x="364.95" y="32.3" width="29.23" height="18.73" rx="5.24" ry="5.24" transform="translate(5.71 119.37) rotate(-18.01)"/>
<rect class="cls-31" x="370.69" y="34.71" width="29.23" height="19.48" rx="5.34" ry="5.34" transform="translate(-2.4 55.38) rotate(-8.2)"/>
<path class="cls-32" d="M394.6,41.64V58.31a9.35,9.35,0,0,1-9.34,9.35H372.08a8.44,8.44,0,0,1-8.44-8.45V37.78h0a4,4,0,0,1,.49,0h26.58a3.88,3.88,0,0,1,3.77,2.94A3.69,3.69,0,0,1,394.6,41.64Z"/>
<path class="cls-17" d="M389.86,37H364.23a5.83,5.83,0,0,0-.59,0v1.51a3.81,3.81,0,0,1,.59,0h25.63a3.25,3.25,0,0,1,3.25,3.24v.16h1.49v-.16A4.74,4.74,0,0,0,389.86,37Z"/>
<path class="cls-1" d="M402.21,37.53V59.21a8.45,8.45,0,0,1-8.45,8.45H372.08a8.44,8.44,0,0,1-8.44-8.45v-22a.81.81,0,0,0,0-.16,8.44,8.44,0,0,1,8.43-7.94h21.68A8.44,8.44,0,0,1,402.21,37.53Z"/>
<path class="cls-17" d="M394.6,50h0V41.84h-8a8.91,8.91,0,0,0-1,.07,8.1,8.1,0,0,0-7,9.28,7.71,7.71,0,0,0,1.7,3.78,8.35,8.35,0,0,0,3.59,2.56,9.24,9.24,0,0,0,3.21.53H389c.33,0,.35,0,.35.35a1.27,1.27,0,0,1-2.38.66c-.05-.09-.09-.1-.18-.06l-1,.52-3.12,1.57c-.11.06-.11.07,0,.16a6.29,6.29,0,0,0,1,.95,6.84,6.84,0,0,0,4.56,1.44,6.58,6.58,0,0,0,1.77-.32,6.81,6.81,0,0,0,4.46-4.59,2.53,2.53,0,0,0,.15-.66c0-.3,0-.61,0-.91Zm-8,2.61a2.72,2.72,0,0,1,0-5.43,2.72,2.72,0,1,1,0,5.43Z"/>
<polygon class="cls-21" points="420.5 74.63 417.79 82.82 415.08 74.66 409.67 74.66 415.12 91.1 413.03 96.52 418.45 96.52 420.53 91.1 423.2 82.81 425.9 74.67 425.91 74.63 420.5 74.63"/>
<rect class="cls-21" x="400.38" y="69.16" width="5.42" height="21.86"/>
<path class="cls-21" d="M380.16,82.82a8.21,8.21,0,0,0,8.22,8.2h8.21V74.62h-8.21A8.21,8.21,0,0,0,380.16,82.82Zm11,0a2.74,2.74,0,1,1-2.74-2.73A2.74,2.74,0,0,1,391.17,82.82Z"/>
<path class="cls-21" d="M371,82.85a2.74,2.74,0,0,1-2.74,2.73h0a2.74,2.74,0,0,1-2.74-2.73v-8.2H360v8.2a8.22,8.22,0,0,0,16.43,0v-8.2H371Z"/>
<path class="cls-21" d="M348.17,74.63A8.21,8.21,0,0,0,340,83.11a8,8,0,0,0,2.61,5.64,8.55,8.55,0,0,0,5.6,2.27h2.73a1.5,1.5,0,0,1,.05.37,1.28,1.28,0,0,1-2.45.51h0l-4.43,2.24a6.94,6.94,0,0,0,12.17-3s0-2.62,0-2.62V74.64S348.17,74.63,348.17,74.63ZM350.9,83a2.73,2.73,0,0,1-5.22,1,2.63,2.63,0,0,1-.25-1.12,2.74,2.74,0,0,1,5.48,0A1,1,0,0,1,350.9,83Z"/>
<path d="M774.16,384.29v3.44l1.72.78v.2l-5.66-2.6v-.18l5.66-2.62v.19Zm-.16.08L770.41,386l3.59,1.63Z"/>
<path d="M773.79,378.23a2,2,0,0,1,2.09,2,1.94,1.94,0,0,1-1.23,1.87h2.81v.17h-5.77v-.17h1.24a2,2,0,0,1-1.24-1.87A2,2,0,0,1,773.79,378.23Zm0,.16a1.87,1.87,0,1,0,1.93,1.87A1.84,1.84,0,0,0,773.79,378.39Z"/>
<path d="M769.87,376.71h6v.17h-6Z"/>
<path d="M770.49,374.6a.21.21,0,1,1,0,.42.21.21,0,0,1,0-.42Zm1.2.13h4.19v.16h-4.19Z"/>
<path d="M771.86,371.38a1.93,1.93,0,1,0,3.25-1.41l.12-.1a2.05,2.05,0,0,1-1.45,3.55,2.05,2.05,0,0,1-1.53-3.46l.12.1A1.92,1.92,0,0,0,771.86,371.38Z"/>
<path d="M775.88,366h-1a1.88,1.88,0,0,1,1,1.76,1.24,1.24,0,0,1-1.2,1.36c-.68,0-1.08-.6-1.08-1.56V366h-.51a1.16,1.16,0,0,0-1.23,1.33,2.26,2.26,0,0,0,.58,1.46l-.13.1a2.49,2.49,0,0,1-.62-1.56,1.32,1.32,0,0,1,1.4-1.49l2.79,0Zm-1.31,0h-.81v1.55c0,.89.33,1.4.92,1.4a1.07,1.07,0,0,0,1-1.21A1.71,1.71,0,0,0,774.57,366Z"/>
<path d="M775.11,358.74l.12-.11a2.15,2.15,0,0,1,.65,1.6,2.1,2.1,0,0,1-4.19,0,1.93,1.93,0,0,1,2.09-2v3.8a1.82,1.82,0,0,0,1.94-1.85A2,2,0,0,0,775.11,358.74Zm-1.49,3.33v-3.63a1.75,1.75,0,0,0-1.76,1.79A1.79,1.79,0,0,0,773.62,362.07Z"/>
<path d="M769.87,356.8h6V357h-6Z"/>
<path d="M773.79,348.44a2,2,0,0,1,2.09,2,1.94,1.94,0,0,1-1.23,1.87h2.81v.16h-5.77v-.16h1.24a2,2,0,0,1-1.24-1.87A2,2,0,0,1,773.79,348.44Zm0,.16a1.87,1.87,0,1,0,1.93,1.87A1.84,1.84,0,0,0,773.79,348.6Z"/>
<path d="M775.11,344.09l.12-.11a2.15,2.15,0,0,1,.65,1.6,2.1,2.1,0,0,1-4.19,0,1.93,1.93,0,0,1,2.09-1.95v3.8a1.82,1.82,0,0,0,1.94-1.85A2,2,0,0,0,775.11,344.09Zm-1.49,3.33v-3.63a1.75,1.75,0,0,0-1.76,1.79A1.79,1.79,0,0,0,773.62,347.42Z"/>
<path d="M771.69,338.9h3.71a1.89,1.89,0,0,1,2.05,2,2.4,2.4,0,0,1-.73,1.69l-.12-.11a2.19,2.19,0,0,0,.68-1.58,1.73,1.73,0,0,0-1.88-1.83h-.86a2,2,0,0,1-.82,3.76,1.92,1.92,0,0,1-2-1.95,1.89,1.89,0,0,1,1.2-1.81h-1.2Zm2,.16a1.81,1.81,0,1,0,1.86,1.81A1.78,1.78,0,0,0,773.72,339.06Z"/>
<path d="M775.88,334.5h-1a1.88,1.88,0,0,1,1,1.76,1.24,1.24,0,0,1-1.2,1.36c-.68,0-1.08-.6-1.08-1.56v-1.55h-.51a1.16,1.16,0,0,0-1.23,1.33,2.28,2.28,0,0,0,.58,1.46l-.13.1a2.49,2.49,0,0,1-.62-1.56,1.34,1.34,0,0,1,1.4-1.5h2.79Zm-1.31,0h-.81v1.55c0,.89.33,1.4.92,1.4a1.07,1.07,0,0,0,1-1.21A1.71,1.71,0,0,0,774.57,334.51Z"/>
<path d="M773.35,325.86h2.53V326h-2.53a1.34,1.34,0,0,0-1.49,1.44c0,1.09.76,1.72,2,1.72h2v.17h-2.53a1.35,1.35,0,0,0-1.49,1.45,1.72,1.72,0,0,0,2,1.72h2v.16h-4.19v-.16h1.2a1.74,1.74,0,0,1-1.2-1.73,1.46,1.46,0,0,1,1.28-1.58,1.74,1.74,0,0,1-1.28-1.75A1.5,1.5,0,0,1,773.35,325.86Z"/>
<path d="M775.11,321.19l.12-.11a2.13,2.13,0,0,1,.65,1.59,2.1,2.1,0,0,1-4.19,0,1.93,1.93,0,0,1,2.09-1.94v3.8a1.82,1.82,0,0,0,1.94-1.86A1.94,1.94,0,0,0,775.11,321.19Zm-1.49,3.33v-3.63a1.74,1.74,0,0,0-1.76,1.78A1.8,1.8,0,0,0,773.62,324.52Z"/>
<path d="M773.35,315.87h2.53V316h-2.53a1.36,1.36,0,0,0-1.49,1.48,1.7,1.7,0,0,0,1.75,1.76h2.27v.17h-4.19v-.17h1.19a1.78,1.78,0,0,1-1.19-1.76A1.52,1.52,0,0,1,773.35,315.87Z"/>
<path d="M775.58,312.38a1.34,1.34,0,0,1,.3.83c0,.58-.39.89-1.15.89h-2.79v.61h-.17v-.61h-1v-.16h1v-1.48h.17v1.48h2.79c.65,0,1-.25,1-.73a1.24,1.24,0,0,0-.27-.73Z"/>
<path d="M773.78,307.78a2,2,0,1,1-2.09,2A2,2,0,0,1,773.78,307.78Zm0,3.9a1.87,1.87,0,1,0-1.92-1.87A1.83,1.83,0,0,0,773.78,311.68Z"/>
<path d="M775.11,301l.12-.11a2.15,2.15,0,0,1,.65,1.6,2.1,2.1,0,0,1-4.19,0,1.93,1.93,0,0,1,2.09-1.95v3.8a1.82,1.82,0,0,0,1.94-1.85A2,2,0,0,0,775.11,301Zm-1.49,3.33v-3.62a1.74,1.74,0,0,0-1.76,1.78A1.79,1.79,0,0,0,773.62,304.33Z"/>
<path d="M773.35,295.69h2.53v.16h-2.53a1.36,1.36,0,0,0-1.49,1.48,1.71,1.71,0,0,0,1.75,1.77h2.27v.16h-4.19v-.16h1.19a1.79,1.79,0,0,1-1.19-1.77A1.51,1.51,0,0,1,773.35,295.69Z"/>
<path d="M775.11,288.58l.12-.11a2.15,2.15,0,0,1,.65,1.6,2.1,2.1,0,0,1-4.19,0,1.93,1.93,0,0,1,2.09-1.95v3.8a1.82,1.82,0,0,0,1.94-1.85A2,2,0,0,0,775.11,288.58Zm-1.49,3.33v-3.63a1.75,1.75,0,0,0-1.76,1.79A1.79,1.79,0,0,0,773.62,291.91Z"/>
<path d="M771.86,285.93c0,.65.26,1.17.82,1.17,1.26,0,.66-2.52,2.12-2.52.75,0,1.08.68,1.08,1.41a2.13,2.13,0,0,1-.58,1.5l-.12-.11a1.93,1.93,0,0,0,.54-1.39c0-.66-.27-1.22-.88-1.25-1.29-.05-.73,2.52-2.14,2.52-.69,0-1-.6-1-1.33a2.23,2.23,0,0,1,.3-1.11l.14.08A1.87,1.87,0,0,0,771.86,285.93Z"/>
<path d="M775.58,281.53a1.36,1.36,0,0,1,.3.83c0,.58-.39.89-1.15.89h-2.79v.62h-.17v-.62h-1v-.16h1v-1.47h.17v1.47h2.79c.65,0,1-.25,1-.73a1.24,1.24,0,0,0-.27-.73Z"/>
<path d="M775.88,277.7h-1a1.89,1.89,0,0,1,1,1.76,1.24,1.24,0,0,1-1.2,1.36c-.68,0-1.08-.6-1.08-1.56v-1.55h-.51a1.16,1.16,0,0,0-1.23,1.33,2.26,2.26,0,0,0,.58,1.46l-.13.1a2.49,2.49,0,0,1-.62-1.56,1.32,1.32,0,0,1,1.4-1.49l2.79,0Zm-1.31,0h-.81v1.55c0,.9.33,1.4.92,1.4a1.07,1.07,0,0,0,1-1.21A1.71,1.71,0,0,0,774.57,277.71Z"/>
<path d="M773.79,269.36a2,2,0,0,1,2.09,2,1.94,1.94,0,0,1-1.23,1.87h2.81v.16h-5.77v-.16h1.24a2,2,0,0,1-1.24-1.87A2,2,0,0,1,773.79,269.36Zm0,.16a1.87,1.87,0,1,0,1.93,1.87A1.83,1.83,0,0,0,773.79,269.52Z"/>
<path d="M775.11,265l.12-.11a2.15,2.15,0,0,1,.65,1.6,2.1,2.1,0,0,1-4.19,0,1.93,1.93,0,0,1,2.09-1.95v3.8a1.82,1.82,0,0,0,1.94-1.85A2,2,0,0,0,775.11,265Zm-1.49,3.33v-3.63a1.75,1.75,0,0,0-1.76,1.79A1.79,1.79,0,0,0,773.62,268.34Z"/>
<path d="M771.86,262.36c0,.65.26,1.17.82,1.17,1.26,0,.66-2.52,2.12-2.52.75,0,1.08.68,1.08,1.41a2.13,2.13,0,0,1-.58,1.5l-.12-.11a1.93,1.93,0,0,0,.54-1.39c0-.66-.27-1.22-.88-1.25-1.29-.05-.73,2.52-2.14,2.52-.69,0-1-.6-1-1.33a2.23,2.23,0,0,1,.3-1.11l.14.08A1.87,1.87,0,0,0,771.86,262.36Z"/>
<path d="M775.58,258a1.36,1.36,0,0,1,.3.83c0,.59-.39.89-1.15.89h-2.79v.62h-.17v-.62h-1v-.16h1v-1.47h.17v1.47h2.79c.65,0,1-.25,1-.73a1.24,1.24,0,0,0-.27-.73Z"/>
<path d="M775.88,254.13h-1a1.89,1.89,0,0,1,1,1.76,1.24,1.24,0,0,1-1.2,1.36c-.68,0-1.08-.6-1.08-1.56v-1.55h-.51a1.16,1.16,0,0,0-1.23,1.33,2.26,2.26,0,0,0,.58,1.46l-.13.1a2.49,2.49,0,0,1-.62-1.56,1.32,1.32,0,0,1,1.4-1.49l2.79,0Zm-1.31,0h-.81v1.55c0,.9.33,1.4.92,1.4a1.07,1.07,0,0,0,1-1.21A1.71,1.71,0,0,0,774.57,254.14Z"/>
<path d="M770.7,251.36v.16c-.41,0-.65-.21-.65-.56s.57-.63.57-1-.18-.4-.49-.4v-.16c.41,0,.65.21.65.56s-.57.63-.57,1S770.39,251.36,770.7,251.36Zm2.65-2.61h2.53v.16h-2.53a1.37,1.37,0,0,0-1.49,1.49,1.7,1.7,0,0,0,1.75,1.76h2.27v.17h-4.19v-.17h1.19a1.78,1.78,0,0,1-1.19-1.76A1.52,1.52,0,0,1,773.35,248.75Z"/>
<path d="M775.88,244.36h-1a1.88,1.88,0,0,1,1,1.76,1.24,1.24,0,0,1-1.2,1.36c-.68,0-1.08-.6-1.08-1.56v-1.55h-.51a1.16,1.16,0,0,0-1.23,1.33,2.26,2.26,0,0,0,.58,1.46l-.13.1a2.49,2.49,0,0,1-.62-1.56,1.32,1.32,0,0,1,1.4-1.49l2.79,0Zm-1.31,0h-.81v1.55c0,.89.33,1.4.92,1.4a1.07,1.07,0,0,0,1-1.21A1.71,1.71,0,0,0,774.57,244.37Z"/>
<rect class="cls-33" x="757" y="0.4" width="35" height="611.6"/>
<path class="cls-23" d="M314.34,149.58v1.75h-5.7v2.6h5.11v1.76h-5.11v2.65h5.88v1.76h-7.89V149.58Z"/>
<path class="cls-23" d="M324.3,155.08v5h-2v-4.45a1.66,1.66,0,0,0-1.78-1.82,2.1,2.1,0,0,0-2.11,2.31v4h-1.95v-8h1.95v1.5a3.07,3.07,0,0,1,2.89-1.58A2.81,2.81,0,0,1,324.3,155.08Z"/>
<path class="cls-23" d="M327.1,152.06l2.1,6.11,2.06-6.11h2l-3.07,8h-2l-3.1-8Z"/>
<path class="cls-23" d="M337.77,149.44,335.9,151h-1.65l1.59-2.32Zm-1.46,2.62v8h-1.95v-8Z"/>
<path class="cls-23" d="M343.48,160.1v-1a3.15,3.15,0,0,1-2.6,1.07,2.53,2.53,0,0,1-2.81-2.5c0-1.49,1.1-2.4,3.05-2.42h2.34v-.21c0-.93-.61-1.49-1.81-1.49a4.72,4.72,0,0,0-2.39.75l-.71-1.35a6.53,6.53,0,0,1,3.53-1c2.11,0,3.29,1.07,3.31,2.86v5.26Zm0-2.8v-.72h-2c-1,0-1.52.28-1.52,1s.54,1.11,1.43,1.11A2,2,0,0,0,343.46,157.3Z"/>
<path class="cls-23" d="M352.81,163.1a3,3,0,0,1-2-.72l.85-1.49a1.58,1.58,0,0,0,1,.41,1.23,1.23,0,0,0,1.17-.81l.24-.53-3.32-7.9h2l2.29,5.84,2.09-5.84h2l-3.61,9A2.78,2.78,0,0,1,352.81,163.1Z"/>
<path class="cls-23" d="M369.48,152v1.89a2.32,2.32,0,0,0-2.74,2.35v3.88h-1.95v-8h1.95v1.54A3,3,0,0,1,369.48,152Z"/>
<path class="cls-23" d="M378.05,156.76h-5.94a2.25,2.25,0,0,0,2.3,1.83,3,3,0,0,0,2.16-.9l1.06,1.1a4.48,4.48,0,0,1-3.39,1.38,4.09,4.09,0,1,1,0-8.17C377,152,378.24,153.84,378.05,156.76Zm-1.78-1.31a1.91,1.91,0,0,0-2.06-1.94,2.12,2.12,0,0,0-2.15,1.94Z"/>
<path class="cls-23" d="M383.17,153.71a2.4,2.4,0,0,0,0,4.78,2.62,2.62,0,0,0,2.17-1l1.21,1a4,4,0,0,1-3.48,1.62,4.09,4.09,0,0,1,0-8.17,4.09,4.09,0,0,1,3.36,1.47l-1.18,1.13A2.77,2.77,0,0,0,383.17,153.71Z"/>
<path class="cls-23" d="M390.25,149.76a1.05,1.05,0,1,1-1.05-1.09A1,1,0,0,1,390.25,149.76Zm-.07,2.3v8h-2v-8Z"/>
<path class="cls-23" d="M401.13,156.11c0,2.42-1.49,4.06-3.77,4.06a3.11,3.11,0,0,1-2.74-1.38v1.31h-1.95V148.94h1.95v4.44a3.06,3.06,0,0,1,2.71-1.38C399.6,152,401.13,153.65,401.13,156.11Zm-2-.06a2.27,2.27,0,1,0-2.26,2.44A2.25,2.25,0,0,0,399.15,156.05Z"/>
<path class="cls-23" d="M410,156.76h-5.94a2.25,2.25,0,0,0,2.3,1.83,3,3,0,0,0,2.17-.9l1.05,1.1a4.47,4.47,0,0,1-3.38,1.38,4.09,4.09,0,1,1-.05-8.17C409,152,410.23,153.84,410,156.76Zm-1.77-1.31a1.91,1.91,0,0,0-2.06-1.94,2.1,2.1,0,0,0-2.15,1.94Z"/>
<path class="cls-23" d="M424,148.94V160.1H422v-1.3a3.05,3.05,0,0,1-2.71,1.39c-2.3,0-3.83-1.69-3.83-4.14a3.73,3.73,0,0,1,3.79-4.07,3.11,3.11,0,0,1,2.75,1.4v-4.44ZM422,156.1a2.29,2.29,0,1,0-2.29,2.45A2.27,2.27,0,0,0,422,156.1Z"/>
<path class="cls-23" d="M428.53,149.76a1.05,1.05,0,1,1-1-1.09A1,1,0,0,1,428.53,149.76Zm-.07,2.3v8h-2v-8Z"/>
<path class="cls-23" d="M438.69,155.08v5h-2v-4.45a1.67,1.67,0,0,0-1.79-1.82,2.1,2.1,0,0,0-2.1,2.31v4h-1.95v-8h1.95v1.5a3.06,3.06,0,0,1,2.88-1.58A2.82,2.82,0,0,1,438.69,155.08Z"/>
<path class="cls-23" d="M448.08,156.76h-5.93a2.23,2.23,0,0,0,2.3,1.83,3,3,0,0,0,2.16-.9l1.05,1.1a4.46,4.46,0,0,1-3.38,1.38,4.09,4.09,0,1,1,0-8.17C447.06,152,448.28,153.84,448.08,156.76Zm-1.77-1.31a1.91,1.91,0,0,0-2.06-1.94,2.1,2.1,0,0,0-2.15,1.94Z"/>
<path class="cls-23" d="M454.47,152v1.89a2.31,2.31,0,0,0-2.73,2.35v3.88h-2v-8h2v1.54A2.92,2.92,0,0,1,454.47,152Z"/>
<path class="cls-23" d="M463.58,156.07a4.24,4.24,0,1,1-4.22-4.07A3.95,3.95,0,0,1,463.58,156.07Zm-6.51,0a2.28,2.28,0,1,0,2.29-2.44A2.25,2.25,0,0,0,457.07,156.1Z"/>
<path class="cls-23" d="M315.11,181.2c0,2.4-1.52,3.8-4.17,3.8h-2.3v3.1h-2V177.58h4.31C313.59,177.58,315.11,178.88,315.11,181.2Zm-1.91.06c0-1.3-.86-1.93-2.36-1.93h-2.2v3.9h2.2C312.34,183.23,313.2,182.58,313.2,181.26Z"/>
<path class="cls-23" d="M321.45,188.1v-1a3.15,3.15,0,0,1-2.6,1.07,2.53,2.53,0,0,1-2.81-2.5c0-1.49,1.09-2.4,3-2.42h2.34v-.21c0-.93-.61-1.49-1.82-1.49a4.78,4.78,0,0,0-2.39.75l-.7-1.35a6.5,6.5,0,0,1,3.53-1c2.1,0,3.29,1.07,3.31,2.86v5.26Zm0-2.8v-.72h-2c-1,0-1.51.28-1.51,1s.54,1.11,1.42,1.11A2,2,0,0,0,321.43,185.3Z"/>
<path class="cls-23" d="M332.91,180.06v7.27c0,2.3-1.66,3.76-4.2,3.76a6,6,0,0,1-3.4-1.07l.78-1.41a4.12,4.12,0,0,0,2.51.84,2.08,2.08,0,0,0,2.36-2.07v-.95a2.9,2.9,0,0,1-2.55,1.26c-2.14,0-3.58-1.56-3.58-3.88a3.49,3.49,0,0,1,3.52-3.81,3,3,0,0,1,2.61,1.26v-1.2Zm-2,3.8a2.12,2.12,0,0,0-2.13-2.3,2.31,2.31,0,1,0,2.13,2.3Z"/>
<path class="cls-23" d="M340,188.1v-1a3.13,3.13,0,0,1-2.6,1.07,2.53,2.53,0,0,1-2.81-2.5c0-1.49,1.1-2.4,3.05-2.42H340v-.21c0-.93-.62-1.49-1.82-1.49a4.78,4.78,0,0,0-2.39.75L335,181a6.54,6.54,0,0,1,3.54-1c2.1,0,3.29,1.07,3.3,2.86l0,5.26Zm0-2.8v-.72h-2c-1,0-1.52.28-1.52,1s.54,1.11,1.43,1.11A2,2,0,0,0,340,185.3Z"/>
<path class="cls-23" d="M353.29,187.6a3.8,3.8,0,0,1-2,.59,2.2,2.2,0,0,1-2.36-2.41v-4h-1.13v-1.42h1.14v-2.21h1.94v2.21h2.3v1.42h-2.3v3.63c0,.76.32,1,.84,1a2.71,2.71,0,0,0,1.14-.33Z"/>
<path class="cls-23" d="M362.25,180.06v8h-2v-1.49a2.89,2.89,0,0,1-2.79,1.56,2.79,2.79,0,0,1-2.92-3.08v-5h2v4.46a1.62,1.62,0,0,0,1.73,1.8,2.07,2.07,0,0,0,2-2.3v-4Z"/>
<path class="cls-23" d="M367.09,181.5c-.63,0-1.08.21-1.08.7,0,1.36,4.25.65,4.25,3.54,0,1.64-1.46,2.43-3.17,2.43a5.13,5.13,0,0,1-3.32-1.13l.68-1.36a4.46,4.46,0,0,0,2.72,1c.67,0,1.18-.23,1.18-.75,0-1.49-4.19-.68-4.18-3.54,0-1.65,1.42-2.42,3-2.42a5.46,5.46,0,0,1,3,.86l-.71,1.41A5,5,0,0,0,367.09,181.5Z"/>
<path class="cls-23" d="M379.87,181.71a2.4,2.4,0,0,0,0,4.78,2.59,2.59,0,0,0,2.16-1l1.22,1a4,4,0,0,1-3.49,1.62,4.09,4.09,0,0,1,0-8.17,4.11,4.11,0,0,1,3.37,1.47L382,182.6A2.75,2.75,0,0,0,379.87,181.71Z"/>
<path class="cls-23" d="M392.37,184.07a4.24,4.24,0,1,1-4.22-4.07A3.95,3.95,0,0,1,392.37,184.07Zm-6.51,0a2.28,2.28,0,1,0,2.29-2.44A2.25,2.25,0,0,0,385.86,184.1Z"/>
<path class="cls-23" d="M407.54,183.08v5h-2v-4.45a1.67,1.67,0,0,0-1.76-1.84,2.11,2.11,0,0,0-2,2.32v4h-2v-4.45a1.65,1.65,0,0,0-1.74-1.84,2.12,2.12,0,0,0-2.05,2.32v4h-1.95v-8H396v1.48a3,3,0,0,1,2.83-1.56,2.67,2.67,0,0,1,2.76,1.92,3,3,0,0,1,3-1.92A2.8,2.8,0,0,1,407.54,183.08Z"/>
<path class="cls-23" d="M418.25,184.11c0,2.42-1.49,4.06-3.77,4.06a3.11,3.11,0,0,1-2.74-1.38V191h-1.95V180.06h1.95v1.32a3.06,3.06,0,0,1,2.71-1.38C416.72,180,418.25,181.65,418.25,184.11Zm-2-.06a2.27,2.27,0,1,0-2.26,2.44A2.26,2.26,0,0,0,416.27,184.05Z"/>
<path class="cls-23" d="M424.64,180v1.89a2.32,2.32,0,0,0-2.74,2.35v3.88H420v-8h1.95v1.54A2.94,2.94,0,0,1,424.64,180Z"/>
<path class="cls-23" d="M430.47,188.1v-1a3.15,3.15,0,0,1-2.6,1.07,2.53,2.53,0,0,1-2.81-2.5c0-1.49,1.1-2.4,3.05-2.42h2.34v-.21c0-.93-.61-1.49-1.82-1.49a4.72,4.72,0,0,0-2.38.75l-.71-1.35a6.53,6.53,0,0,1,3.53-1c2.1,0,3.29,1.07,3.31,2.86v5.26Zm0-2.8v-.72h-2c-1,0-1.51.28-1.51,1s.54,1.11,1.42,1.11A2,2,0,0,0,430.45,185.3Z"/>
<path class="cls-23" d="M437,181.5c-.63,0-1.08.21-1.08.7,0,1.36,4.25.65,4.25,3.54,0,1.64-1.45,2.43-3.17,2.43a5.13,5.13,0,0,1-3.32-1.13l.68-1.36a4.46,4.46,0,0,0,2.72,1c.67,0,1.18-.23,1.18-.75,0-1.49-4.19-.68-4.17-3.54,0-1.65,1.41-2.42,3-2.42a5.46,5.46,0,0,1,2.95.86l-.71,1.41A5,5,0,0,0,437,181.5Z"/>
<path class="cls-23" d="M311.09,214.38a2.43,2.43,0,0,0,2.6-2.67v-6.13h2v6.13c0,2.76-1.76,4.48-4.62,4.48s-4.67-1.72-4.67-4.48v-6.13h2v6.13A2.49,2.49,0,0,0,311.09,214.38Z"/>
<path class="cls-23" d="M320.41,209.5c-.63,0-1.08.21-1.08.7,0,1.36,4.25.65,4.25,3.54,0,1.64-1.46,2.43-3.17,2.43a5.13,5.13,0,0,1-3.32-1.13l.68-1.36a4.46,4.46,0,0,0,2.72,1c.67,0,1.18-.23,1.18-.75,0-1.49-4.19-.68-4.18-3.54,0-1.65,1.42-2.42,3-2.42a5.46,5.46,0,0,1,3,.86l-.71,1.41A5,5,0,0,0,320.41,209.5Z"/>
<path class="cls-23" d="M330,216.1v-1a3.15,3.15,0,0,1-2.6,1.07,2.53,2.53,0,0,1-2.81-2.5c0-1.49,1.1-2.4,3.05-2.42H330v-.21c0-.93-.61-1.49-1.81-1.49a4.72,4.72,0,0,0-2.39.75l-.71-1.35a6.53,6.53,0,0,1,3.53-1c2.11,0,3.29,1.07,3.31,2.86v5.26Zm0-2.8v-.72h-2c-1,0-1.52.28-1.52,1s.54,1.11,1.42,1.11A2,2,0,0,0,330,213.3Z"/>
<path class="cls-23" d="M341.93,211.08v5h-2v-4.45a1.66,1.66,0,0,0-1.79-1.82,2.1,2.1,0,0,0-2.1,2.31v4h-1.95v-8h1.95v1.5A3.07,3.07,0,0,1,339,208,2.81,2.81,0,0,1,341.93,211.08Z"/>
<path class="cls-23" d="M351.88,204.94V216.1h-1.95v-1.3a3.06,3.06,0,0,1-2.71,1.39c-2.3,0-3.83-1.69-3.83-4.14a3.73,3.73,0,0,1,3.79-4.07,3.11,3.11,0,0,1,2.75,1.4v-4.44Zm-1.95,7.16a2.29,2.29,0,1,0-2.29,2.45A2.27,2.27,0,0,0,349.93,212.1Z"/>
<path class="cls-23" d="M362.13,212.07a4.24,4.24,0,1,1-4.22-4.07A3.95,3.95,0,0,1,362.13,212.07Zm-6.51,0a2.28,2.28,0,1,0,2.29-2.44A2.25,2.25,0,0,0,355.62,212.1Z"/>
<path class="cls-23" d="M370.74,209.5c-.63,0-1.08.21-1.08.7,0,1.36,4.25.65,4.25,3.54,0,1.64-1.45,2.43-3.17,2.43a5.15,5.15,0,0,1-3.32-1.13l.68-1.36a4.48,4.48,0,0,0,2.72,1c.67,0,1.19-.23,1.19-.75,0-1.49-4.2-.68-4.18-3.54,0-1.65,1.41-2.42,3-2.42a5.43,5.43,0,0,1,2.95.86l-.71,1.41A5,5,0,0,0,370.74,209.5Z"/>
<path class="cls-23" d="M383.32,212.07A4.24,4.24,0,1,1,379.1,208,3.95,3.95,0,0,1,383.32,212.07Zm-6.51,0a2.28,2.28,0,1,0,2.29-2.44A2.25,2.25,0,0,0,376.81,212.1Z"/>
<path class="cls-23" d="M387.05,204.94V216.1H385.1V204.94Z"/>
<path class="cls-23" d="M397.3,212.07a4.24,4.24,0,1,1-4.22-4.07A3.95,3.95,0,0,1,397.3,212.07Zm-6.51,0a2.28,2.28,0,1,0,2.29-2.44A2.25,2.25,0,0,0,390.79,212.1Z"/>
<path class="cls-23" d="M410.71,212.76h-5.94a2.24,2.24,0,0,0,2.3,1.83,3,3,0,0,0,2.16-.9l1.06,1.1a4.48,4.48,0,0,1-3.39,1.38,4.09,4.09,0,1,1,0-8.17C409.68,208,410.9,209.84,410.71,212.76Zm-1.78-1.31a1.91,1.91,0,0,0-2.06-1.94,2.11,2.11,0,0,0-2.15,1.94Z"/>
<path class="cls-23" d="M414.43,204.94V216.1h-1.95V204.94Z"/>
<path class="cls-23" d="M428.65,212.76h-5.94a2.25,2.25,0,0,0,2.3,1.83,3,3,0,0,0,2.17-.9l1.05,1.1a4.47,4.47,0,0,1-3.38,1.38,4.09,4.09,0,1,1-.05-8.17C427.63,208,428.85,209.84,428.65,212.76Zm-1.77-1.31a1.91,1.91,0,0,0-2.06-1.94,2.1,2.1,0,0,0-2.15,1.94Z"/>
<path class="cls-23" d="M433.79,210.84v1.35H430v-1.35Z"/>
<path class="cls-23" d="M449.38,211.08v5h-2v-4.45a1.67,1.67,0,0,0-1.76-1.84,2.11,2.11,0,0,0-2,2.32v4h-2v-4.45a1.65,1.65,0,0,0-1.74-1.84,2.12,2.12,0,0,0-2.05,2.32v4h-1.95v-8h1.95v1.48a3,3,0,0,1,2.83-1.56,2.69,2.69,0,0,1,2.77,1.92,3,3,0,0,1,3-1.92A2.8,2.8,0,0,1,449.38,211.08Z"/>
<path class="cls-23" d="M456.3,216.1v-1a3.12,3.12,0,0,1-2.59,1.07,2.54,2.54,0,0,1-2.82-2.5c0-1.49,1.1-2.4,3.06-2.42h2.34v-.21c0-.93-.62-1.49-1.82-1.49a4.78,4.78,0,0,0-2.39.75l-.7-1.35a6.48,6.48,0,0,1,3.53-1c2.1,0,3.29,1.07,3.3,2.86l0,5.26Zm0-2.8v-.72h-2c-1,0-1.52.28-1.52,1s.54,1.11,1.43,1.11A2,2,0,0,0,456.29,213.3Z"/>
<path class="cls-23" d="M462.45,205.76a1.05,1.05,0,1,1-1.05-1.09A1,1,0,0,1,462.45,205.76Zm-.07,2.3v8h-2v-8Z"/>
<path class="cls-23" d="M466.82,204.94V216.1h-1.95V204.94Z"/>
<path class="cls-23" d="M314.29,226.07a4.24,4.24,0,1,1-4.22-4.07A3.95,3.95,0,0,1,314.29,226.07Zm-6.5,0a2.27,2.27,0,1,0,2.28-2.44A2.25,2.25,0,0,0,307.79,226.1Z"/>
<path class="cls-23" d="M323.93,223.71a2.4,2.4,0,0,0,0,4.78,2.59,2.59,0,0,0,2.16-1l1.22,1a4,4,0,0,1-3.49,1.62,4.09,4.09,0,0,1,0-8.17,4.1,4.1,0,0,1,3.37,1.47L326,224.6A2.75,2.75,0,0,0,323.93,223.71Z"/>
<path class="cls-23" d="M336.43,226.07a4.24,4.24,0,1,1-4.22-4.07A3.95,3.95,0,0,1,336.43,226.07Zm-6.51,0a2.28,2.28,0,1,0,2.29-2.44A2.25,2.25,0,0,0,329.92,226.1Zm4.71-6.64L332.76,221h-1.65l1.59-2.31Z"/>
<path class="cls-23" d="M345.89,218.94V230.1h-2v-1.3a3,3,0,0,1-2.7,1.39c-2.3,0-3.84-1.69-3.84-4.14a3.74,3.74,0,0,1,3.79-4.07,3.09,3.09,0,0,1,2.75,1.4v-4.44Zm-2,7.16a2.26,2.26,0,0,0-2.28-2.45,2.46,2.46,0,0,0,0,4.9A2.26,2.26,0,0,0,343.93,226.1Z"/>
<path class="cls-23" d="M350.42,219.76a1.05,1.05,0,1,1-1.05-1.09A1,1,0,0,1,350.42,219.76Zm-.07,2.3v8h-2v-8Z"/>
<path class="cls-23" d="M360.12,222.06v7.27c0,2.3-1.67,3.76-4.21,3.76a6,6,0,0,1-3.4-1.07l.78-1.41a4.12,4.12,0,0,0,2.51.84,2.07,2.07,0,0,0,2.36-2.07v-.95a2.9,2.9,0,0,1-2.55,1.26,3.55,3.55,0,0,1-3.58-3.88,3.49,3.49,0,0,1,3.52-3.81,3,3,0,0,1,2.61,1.26v-1.2Zm-2,3.8a2.12,2.12,0,0,0-2.13-2.3,2.31,2.31,0,0,0,0,4.6A2.12,2.12,0,0,0,358.16,225.86Z"/>
<path class="cls-23" d="M370.16,226.07a4.24,4.24,0,1,1-4.23-4.07A4,4,0,0,1,370.16,226.07Zm-6.51,0a2.28,2.28,0,1,0,2.28-2.44A2.25,2.25,0,0,0,363.65,226.1Z"/>
<path class="cls-23" d="M387.43,231.3a4.5,4.5,0,0,1-2.92,1.16,3.94,3.94,0,0,1-3.35-2.27,5.34,5.34,0,1,1,5.67-5.35,5.29,5.29,0,0,1-3.69,5,2.26,2.26,0,0,0,1.61.88,3.39,3.39,0,0,0,1.9-.84Zm-6.18-2.92a3.53,3.53,0,1,0-3.58-3.54A3.57,3.57,0,0,0,381.25,228.38Z"/>
<path class="cls-23" d="M395.29,230.1,393.47,227a2.3,2.3,0,0,1-.38,0h-2.37v3.1h-2V219.58h4.39c2.72,0,4.27,1.3,4.27,3.62a3.43,3.43,0,0,1-2.09,3.41l2.32,3.49Zm-4.57-4.87h2.37c1.51,0,2.35-.65,2.35-2s-.84-1.93-2.35-1.93h-2.37Z"/>
<rect class="cls-14" x="289.12" y="150.63" width="7.85" height="7.85" rx="2.55" ry="2.55"/>
<rect class="cls-14" x="289.12" y="179.31" width="7.85" height="7.85" rx="2.55" ry="2.55"/>
<rect class="cls-14" x="289.12" y="207.98" width="7.85" height="7.85" rx="2.55" ry="2.55"/>
<path class="cls-14" d="M316.79,299.16c1.33,0,2.58-2,2.58-4.85,0-5.55-3.83-9.86-10-9.86A10.1,10.1,0,0,0,299,294.4c0,5.44,4.34,9.44,10,9.44a9.77,9.77,0,0,0,5.44-1.7l1.21,2.12a12.22,12.22,0,0,1-6.65,2c-7.12,0-12.5-5.07-12.5-11.87s5.67-12.3,12.86-12.3,12.53,5.1,12.53,12.13c0,4.28-2.24,7.06-5.41,7.06-1.73,0-3-.74-3.29-2.3l-.06-.51a5.57,5.57,0,0,1-4.73,2.46,6.44,6.44,0,0,1-6.43-6.6c0-3.71,2.41-6.74,6.12-6.74a5.42,5.42,0,0,1,4.31,2v-1.7h3.17v9.75C315.57,298.73,316.08,299.16,316.79,299.16Zm-11.39-5c0,2.07,1.33,3.86,3.37,3.86s3.4-1.73,3.4-3.83a3.44,3.44,0,0,0-3.46-3.68A3.4,3.4,0,0,0,305.4,294.2Z"/>
<path class="cls-14" d="M338.92,286.81v13.71c0,4.34-3.15,7.08-7.93,7.08a11.32,11.32,0,0,1-6.41-2l1.48-2.66a7.7,7.7,0,0,0,4.73,1.59c2.72,0,4.45-1.51,4.45-3.92v-1.78a5.49,5.49,0,0,1-4.82,2.38c-4,0-6.75-2.95-6.75-7.31s2.7-7.2,6.64-7.2a5.61,5.61,0,0,1,4.93,2.38v-2.26ZM335.24,294a4,4,0,0,0-4-4.34,4.05,4.05,0,0,0-4,4.34c0,2.54,1.64,4.33,4,4.33A4,4,0,0,0,335.24,294Z"/>
<path class="cls-14" d="M357.25,286.81V302h-3.71v-2.81a5.48,5.48,0,0,1-5.27,2.95c-3.4,0-5.5-2.24-5.5-5.81v-9.49h3.72v8.41a3.05,3.05,0,0,0,3.25,3.4c2.38,0,3.8-1.9,3.8-4.33v-7.48Z"/>
<path class="cls-14" d="M370.8,302v-1.85a5.93,5.93,0,0,1-4.9,2c-3.26,0-5.3-2-5.3-4.71s2.07-4.53,5.75-4.56h4.42v-.4c0-1.75-1.16-2.8-3.43-2.8a8.86,8.86,0,0,0-4.5,1.41l-1.34-2.55a12.31,12.31,0,0,1,6.66-1.87c4,0,6.21,2,6.24,5.39l0,9.92Zm0-5.28v-1.36h-3.83c-1.95,0-2.86.54-2.86,1.87s1,2.1,2.69,2.1C368.9,299.3,370.57,298.17,370.77,296.69Z"/>
<path class="cls-14" d="M382.39,280.94v21h-3.68v-21Z"/>
<path class="cls-14" d="M388.45,307.63a5.61,5.61,0,0,1-3.77-1.36l1.59-2.8a3.06,3.06,0,0,0,2,.76,2.34,2.34,0,0,0,2.21-1.53l.45-1-6.26-14.9h3.82l4.31,11,3.94-11h3.71l-6.8,17.05A5.24,5.24,0,0,1,388.45,307.63Z"/>
<path class="cls-14" d="M411.07,302v-1.85a5.94,5.94,0,0,1-4.91,2c-3.25,0-5.29-2-5.29-4.71s2.06-4.53,5.75-4.56H411v-.4c0-1.75-1.16-2.8-3.43-2.8a8.92,8.92,0,0,0-4.51,1.41l-1.33-2.55a12.26,12.26,0,0,1,6.66-1.87c4,0,6.21,2,6.23,5.39l0,9.92Zm0-5.28v-1.36h-3.83c-1.95,0-2.86.54-2.86,1.87s1,2.1,2.69,2.1C409.17,299.3,410.84,298.17,411,296.69Z"/>
<path class="cls-14" d="M434.92,294.46c0,4.56-2.8,7.65-7.11,7.65a5.85,5.85,0,0,1-5.15-2.61v8H419V286.81h3.69v2.49a5.75,5.75,0,0,1,5.1-2.61C432,286.69,434.92,289.81,434.92,294.46Zm-3.74-.12a4.27,4.27,0,1,0-8.52,0c0,2.72,1.75,4.59,4.27,4.59S431.18,297,431.18,294.34Z"/>
<path class="cls-14" d="M454.22,294.46c0,4.56-2.8,7.65-7.11,7.65A5.88,5.88,0,0,1,442,299.5v8h-3.68V286.81H442v2.49a5.78,5.78,0,0,1,5.1-2.61C451.33,286.69,454.22,289.81,454.22,294.46Zm-3.74-.12a4.27,4.27,0,1,0-8.53,0c0,2.72,1.76,4.59,4.28,4.59S450.48,297,450.48,294.34Z"/>
<rect class="cls-1" x="65.39" y="314.92" width="113.99" height="113.99"/>
<rect class="cls-1" x="570.05" y="314.92" width="113.99" height="113.99"/>
</svg>
