<?xml version="1.0" encoding="UTF-8"?>
<svg width="16px" height="17px" viewBox="0 0 16 17" version="1.1" xmlns="http://www.w3.org/2000/svg" xmlns:xlink="http://www.w3.org/1999/xlink">
    <!-- Generator: sketchtool 49.2 (51160) - http://www.bohemiancoding.com/sketch -->
    <title>478C60B3-5FA4-45AB-8820-A1DFBBE8154B</title>
    <desc>Created with sketchtool.</desc>
    <defs></defs>
    <g id="Ayuda" stroke="none" stroke-width="1" fill="none" fill-rule="evenodd">
        <g id="Ayuda_Desktop-HD" transform="translate(-397.000000, -793.000000)" fill="#95FAD8">
            <g id="helpTopics" transform="translate(82.000000, 651.000000)">
                <g id="btn_myProfile" transform="translate(315.000000, 142.000000)">
                    <g id="icon_profile" transform="translate(0.000000, 0.293103)">
                        <path d="M7.97468354,8.20740948 C10.1776899,8.20740948 11.9620253,6.37111638 11.9620253,4.10344828 C11.9620253,1.8362931 10.1776899,0 7.97468354,0 C5.7711788,0 3.98734177,1.8362931 3.98734177,4.10344828 C3.98734177,6.37111638 5.7711788,8.20740948 7.97468354,8.20740948 L7.97468354,8.20740948 Z M7.97468354,10.2586207 C5.31313291,10.2586207 0,11.6337888 0,14.3625819 L0,16.4137931 L15.9493671,16.4137931 L15.9493671,14.3625819 C15.9493671,11.6337888 10.6357358,10.2586207 7.97468354,10.2586207 L7.97468354,10.2586207 Z"></path>
                    </g>
                </g>
            </g>
        </g>
    </g>
</svg>