<?xml version="1.0" encoding="UTF-8"?>
<svg width="15px" height="17px" viewBox="0 0 15 17" version="1.1" xmlns="http://www.w3.org/2000/svg" xmlns:xlink="http://www.w3.org/1999/xlink">
    <!-- Generator: sketchtool 49.2 (51160) - http://www.bohemiancoding.com/sketch -->
    <title>7121C316-63C1-4F7E-BC13-111145B04220</title>
    <desc>Created with sketchtool.</desc>
    <defs></defs>
    <g id="Ayuda" stroke="none" stroke-width="1" fill="none" fill-rule="evenodd">
        <g id="Ayuda_Desktop-HD" transform="translate(-398.000000, -743.000000)" fill="#95FAD8">
            <g id="helpTopics" transform="translate(82.000000, 651.000000)">
                <g id="btn_bankAccounts" transform="translate(316.000000, 92.000000)">
                    <g id="icon_bank" transform="translate(0.000000, 0.586207)">
                        <path d="M1.48634465,12.2824119 L3.71623395,12.2824119 L3.71623395,6.90897687 L1.48634465,6.90897687 L1.48634465,12.2824119 Z M5.94575092,12.2824119 L8.17526788,12.2824119 L8.17526788,6.90897687 L5.94575092,6.90897687 L5.94575092,12.2824119 Z M0,16.1206897 L14.1213911,16.1206897 L14.1213911,13.8175692 L0,13.8175692 L0,16.1206897 Z M10.4051572,12.2824119 L12.6346742,12.2824119 L12.6346742,6.90897687 L10.4051572,6.90897687 L10.4051572,12.2824119 Z M7.0605094,0 L0,3.83827775 L0,5.37381959 L14.1213911,5.37381959 L14.1213911,3.83827775 L7.0605094,0 L7.0605094,0 Z"></path>
                    </g>
                </g>
            </g>
        </g>
    </g>
</svg>