<svg xmlns="http://www.w3.org/2000/svg" viewBox="0 0 25.034 24.835">
  <defs>
    <style>
      .cls-1 {
        fill: #95fad8;
      }
    </style>
  </defs>
  <path id="Path_35" data-name="Path 35" class="cls-1" d="M0,15.639A9.182,9.182,0,0,1,9.167,6.471h.511V9.224h6.074l.028.029v6.358h2.583v.029A9.182,9.182,0,1,1,0,15.639Zm10.247,5.79V14.845H7.976v6.584Zm0-8.714V10.444H7.976v2.271Zm6.811,1.448V8.089h-5.79v-2.1h5.79V0h2.186V5.989h5.79v2.1h-5.79v6.074Z"/>
</svg>
