<?xml version="1.0" encoding="UTF-8"?>
<svg width="30px" height="30px" viewBox="0 0 30 30" version="1.1" xmlns="http://www.w3.org/2000/svg" xmlns:xlink="http://www.w3.org/1999/xlink">
    <!-- Generator: sketchtool 41.2 (35397) - http://www.bohemiancoding.com/sketch -->
    <title>24177281-5EE7-4343-A93E-C689FB3EAFBC</title>
    <desc>Created with sketchtool.</desc>
    <defs></defs>
    <g id="Ayuda" stroke="none" stroke-width="1" fill="none" fill-rule="evenodd">
        <g id="Ayuda_Desktop-HD" transform="translate(-90.000000, -358.000000)" fill="#95FAD8">
            <g id="ic_call" transform="translate(90.000000, 358.000000)">
                <path d="M18.6691748,22.4755186 C13.6353795,20.2432159 9.63384824,16.1872421 7.46977053,11.1237415 L10.3856327,9.15674656 C9.57883516,7.07116257 9.16326001,4.85476175 9.15972392,2.61856623 L2.19212921,2.61856623 C2.19212921,16.5650465 13.4979853,27.8709025 27.4444655,27.8709025 L27.4444655,20.9033078 C25.135441,20.8982035 22.8484574,20.4539692 20.7054301,19.5942866 L18.6691748,22.4755186 Z M18.9676744,18.3661611 C19.5363773,17.5614658 20.5831562,17.2524724 21.4976868,17.6193394 C23.3902707,18.3785559 25.4099876,18.770875 27.4491695,18.7753828 C28.6225535,18.7779767 29.5723957,19.729921 29.5723957,20.9033078 L29.5723957,27.8709025 C29.5723957,29.0461259 28.6196889,29.9988327 27.4444655,29.9988327 C12.3227619,29.9988327 0.0641990039,17.7402699 0.0641990039,2.61856623 C0.0641990039,1.44334283 1.01690581,0.490636024 2.19212921,0.490636024 L9.15972392,0.490636024 C10.3336335,0.490636024 11.2857952,1.44129327 11.2876515,2.61520135 C11.2907742,4.58996599 11.6577649,6.5472501 12.3702408,8.38901101 C12.7284449,9.31497402 12.3987152,10.3655905 11.5756481,10.9208187 L10.1829301,11.8603244 C11.9692932,15.1878057 14.677964,17.9312944 17.9826,19.7600079 L18.9676744,18.3661611 Z" id="Shape"></path>
            </g>
        </g>
    </g>
</svg>