<svg xmlns="http://www.w3.org/2000/svg" width="21" height="18" viewBox="0 0 21 18">
    <path fill="#F2FF4E" fill-rule="evenodd" d="M0 18h21L10.5 0 0 18zm11.735-2.4h-2.47v-2.4h2.47v2.4zm0-3.6h-2.47V7.2h2.47V12z"/>
</svg>
