<svg xmlns="http://www.w3.org/2000/svg" width="18" height="18" viewBox="0 0 18 18">
    <path fill="#8078FF" fill-rule="evenodd" d="M9 0C4.032 0 0 4.032 0 9s4.032 9 9 9 9-4.032 9-9-4.032-9-9-9zm-.9 8.1h1.8v5.4H8.1V8.1zm0-3.6h1.8v1.8H8.1V4.5z"/>
</svg>
