<svg xmlns="http://www.w3.org/2000/svg" width="18" height="19" viewBox="0 0 18 19">
    <path fill="#F6F7FA" fill-rule="evenodd" d="M15.568 10.045c0-.269.09-.538.09-.896 0-.359 0-.628-.09-.897l1.883-1.524c.18-.18.18-.36.09-.538L15.748 3.05c-.09-.09-.27-.18-.538-.09l-2.242.897c-.448-.358-.986-.627-1.524-.896L11.085.63c.09-.269-.18-.448-.359-.448H7.14c-.18 0-.449.18-.449.358l-.358 2.422c-.538.179-.987.538-1.525.896l-2.152-.896c-.269-.09-.448 0-.627.179L.235 6.279c-.09.09 0 .359.18.538l1.883 1.435c0 .269-.09.538-.09.897 0 .358 0 .627.09.896L.415 11.57c-.18.179-.18.358-.09.538l1.793 3.138c.09.09.27.18.538.09l2.242-.897c.448.359.986.628 1.524.897l.359 2.331c0 .18.18.359.448.359h3.587c.18 0 .448-.18.448-.359l.36-2.331c.537-.27 1.075-.538 1.523-.897l2.242.897c.18.09.448 0 .538-.18l1.794-3.138c.09-.18.09-.448-.09-.538l-2.063-1.435zm-6.635 2.242c-1.704 0-3.138-1.435-3.138-3.138 0-1.704 1.434-3.139 3.138-3.139s3.138 1.435 3.138 3.139c0 1.703-1.434 3.138-3.138 3.138z"/>
</svg>
