<svg xmlns="http://www.w3.org/2000/svg" width="29" height="18" viewBox="0 0 29 18">
    <path fill="#F6F7FA" fill-rule="evenodd" d="M19.285 7.714a3.841 3.841 0 0 0 3.845-3.857A3.842 3.842 0 0 0 19.285 0a3.853 3.853 0 0 0-3.857 3.857 3.852 3.852 0 0 0 3.857 3.857zM9 7.714a3.841 3.841 0 0 0 3.844-3.857A3.841 3.841 0 0 0 9 0a3.852 3.852 0 0 0-3.857 3.857A3.852 3.852 0 0 0 9 7.714zm0 2.572c-2.996 0-9 1.504-9 4.5V18h18v-3.214c0-2.996-6.004-4.5-9-4.5zm10.285 0c-.372 0-.797.026-1.246.065 1.491 1.08 2.532 2.532 2.532 4.435V18h7.715v-3.214c0-2.996-6.005-4.5-9-4.5z"/>
</svg>
