<svg xmlns="http://www.w3.org/2000/svg" viewBox="0 0 54 54">
    <defs>
        <style>
            .cls-1{fill:#95fad8}
        </style>
    </defs>
    <path id="ic_arrow_forward_24px" d="M31 4l-4.759 4.759 18.833 18.866H4v6.75h41.074L26.241 53.241 31 58l27-27z" class="cls-1" transform="translate(-4 -4)"/>
</svg>
