<svg xmlns="http://www.w3.org/2000/svg" id="Group_7" data-name="Group 7" viewBox="0 0 129.214 120.258">
    <defs>
        <style>
            .cls-1{fill:#1d1f4a}
        </style>
    </defs>
    <rect id="Rectangle_21" width="38.38" height="80.599" class="cls-1" data-name="Rectangle 21" rx="2" transform="translate(46.057 39.659)"/>
    <rect id="Rectangle_20" width="38.38" height="56.291" class="cls-1" data-name="Rectangle 20" rx="2" transform="translate(90.833 63.967)"/>
    <rect id="Rectangle_22" width="38.38" height="40.939" class="cls-1" data-name="Rectangle 22" rx="2" transform="translate(0 78.04)"/>
    <path id="ic_store_24px" d="M39.248 4H5.132v4.158h34.116zm2.132 20.789v-4.158l-2.132-10.394H5.132L3 20.631v4.158h2.132v12.474h21.323V24.789h8.529v12.474h4.264V24.789zm-19.19 8.316H9.4v-8.316h12.79z" class="cls-1" transform="translate(-3 34.381)"/>
    <path id="ic_store_24px-2" d="M39.248 4H5.132v4.158h34.116zm2.132 20.789v-4.158l-2.132-10.394H5.132L3 20.631v4.158h2.132v12.474h21.323V24.789h8.529v12.474h4.264V24.789zm-19.19 8.316H9.4v-8.316h12.79z" class="cls-1" data-name="ic_store_24px" transform="translate(43.663 -4)"/>
    <path id="ic_store_24px-3" d="M39.248 4H5.132v4.158h34.116zm2.132 20.789v-4.158l-2.132-10.394H5.132L3 20.631v4.158h2.132v12.474h21.323V24.789h8.529v12.474h4.264V24.789zm-19.19 8.316H9.4v-8.316h12.79z" class="cls-1" data-name="ic_store_24px" transform="translate(87.833 20.307)"/>
</svg>
