<svg xmlns="http://www.w3.org/2000/svg" width="23" height="18" viewBox="0 0 23 18">
    <path fill="#8078FF" fill-rule="evenodd" d="M0 10.8h3.6V7.2H0v3.6zM0 18h3.6v-3.6H0V18zM0 3.6h3.6V0H0v3.6zm7.2 7.2h15.53V7.2H7.2v3.6zm0 7.2h15.53v-3.6H7.2V18zm0-14.4h15.53V0H7.2v3.6z"/>
</svg>
