<?xml version="1.0" encoding="UTF-8"?>
<svg width="18px" height="18px" viewBox="0 0 18 18" version="1.1" xmlns="http://www.w3.org/2000/svg" xmlns:xlink="http://www.w3.org/1999/xlink">
    <!-- Generator: sketchtool 41.2 (35397) - http://www.bohemiancoding.com/sketch -->
    <title>19697C25-7946-4D46-A002-412392BC7E79</title>
    <desc>Created with sketchtool.</desc>
    <defs></defs>
    <g id="Perfil" stroke="none" stroke-width="1" fill="none" fill-rule="evenodd">
        <g id="User_Perfil_Mobile-Portrait" transform="translate(-230.000000, -34.000000)" fill="#F6F7FA">
            <g id="Header">
                <g id="User_topbar" transform="translate(181.000000, 29.000000)">
                    <path d="M57.1,19.4 L58.9,19.4 L58.9,17.6 L57.1,17.6 L57.1,19.4 L57.1,19.4 Z M58,5 C53.032,5 49,9.032 49,14 C49,18.968 53.032,23 58,23 C62.968,23 67,18.968 67,14 C67,9.032 62.968,5 58,5 L58,5 Z M58,21.2 C54.031,21.2 50.8,17.969 50.8,14 C50.8,10.031 54.031,6.8 58,6.8 C61.969,6.8 65.2,10.031 65.2,14 C65.2,17.969 61.969,21.2 58,21.2 L58,21.2 Z M58,8.6 C56.011,8.6 54.4,10.211 54.4,12.2 L56.2,12.2 C56.2,11.21 57.01,10.4 58,10.4 C58.99,10.4 59.8,11.21 59.8,12.2 C59.8,14 57.1,13.775 57.1,16.7 L58.9,16.7 C58.9,14.675 61.6,14.45 61.6,12.2 C61.6,10.211 59.989,8.6 58,8.6 L58,8.6 Z" id="icon_help"></path>
                </g>
            </g>
        </g>
    </g>
</svg>