<?xml version="1.0" encoding="UTF-8"?>
<svg width="37px" height="30px" viewBox="0 0 37 30" version="1.1" xmlns="http://www.w3.org/2000/svg" xmlns:xlink="http://www.w3.org/1999/xlink">
    <!-- Generator: sketchtool 41.2 (35397) - http://www.bohemiancoding.com/sketch -->
    <title>A63DC1C0-5BDB-4813-8CD1-5380E863ABDA</title>
    <desc>Created with sketchtool.</desc>
    <defs></defs>
    <g id="Ayuda" stroke="none" stroke-width="1" fill="none" fill-rule="evenodd">
        <g id="Ayuda_Desktop-HD" transform="translate(-86.000000, -530.000000)" fill="#ff6061">
            <g id="ic_issue" transform="translate(86.000000, 530.000000)">
                <path d="M36.5183506,28.3986547 L19.1830181,0.488286579 C18.7967155,-0.139455265 17.9275344,-0.139455265 17.5412318,0.488286579 L0.205899325,28.4952304 C0.930216837,27.3363224 -1.0978722,29.9438654 1.0267925,29.9921532 L35.7940331,29.9921532 C37.7255464,29.9438654 36.1320479,27.9157764 36.5183506,28.3986547 Z M2.76515453,28.012352 L18.362125,2.85439045 L34.055671,28.012352 L2.76515453,28.012352 Z M19.3761695,10.2151223 L19.3761695,21.2540592 C19.3761695,21.7852254 18.941579,22.2198159 18.4104128,22.2198159 C17.8792466,22.2198159 17.4446561,21.7852254 17.4446561,21.2540592 L17.4446561,10.2151223 C17.4446561,9.68395613 17.8792466,9.24936562 18.4104128,9.24936562 C18.941579,9.24936562 19.3761695,9.68395613 19.3761695,10.2151223 Z M18.4587006,25.4376689 C17.9275344,25.4376689 17.4929439,25.0030783 17.4929439,24.4719122 C17.4929439,23.940746 17.9275344,23.5061555 18.4587006,23.5061555 C18.9898668,23.5061555 19.4244573,23.940746 19.4244573,24.4719122 C19.3761695,25.0030783 18.941579,25.4376689 18.4587006,25.4376689 Z" id="Warning"></path>
            </g>
        </g>
    </g>
</svg>