<?xml version="1.0" encoding="UTF-8"?>
<svg width="32px" height="32px" viewBox="0 0 32 32" version="1.1" xmlns="http://www.w3.org/2000/svg" xmlns:xlink="http://www.w3.org/1999/xlink">
    <!-- Generator: sketchtool 41.2 (35397) - http://www.bohemiancoding.com/sketch -->
    <title>16A7AF44-BECF-4AC3-95F3-018D6FEE1CFD</title>
    <desc>Created with sketchtool.</desc>
    <defs></defs>
    <g id="Home" stroke="none" stroke-width="1" fill="none" fill-rule="evenodd">
        <g id="User_Home_Tablet-Portrait" transform="translate(-465.000000, -372.000000)" fill="#95FAD8">
            <g id="top_module" transform="translate(417.000000, 130.000000)">
                <g id="btn_askForPayment" transform="translate(32.000000, 226.000000)">
                    <g id="icon_askForPayment" transform="translate(16.885057, 16.757701)">
                        <path d="M28.043341,11.7759055 C28.043341,12.0520121 27.8185345,12.2771032 27.5422992,12.2771032 L7.84738221,12.2771032 C7.57114687,12.2771032 7.34595079,12.0520121 7.34595079,11.7759055 L7.34595079,2.11957538 C7.34595079,1.84346882 7.57114687,1.61837773 7.84738221,1.61837773 L27.5422992,1.61837773 C27.8185345,1.61837773 28.043341,1.84346882 28.043341,2.11957538 L28.043341,11.7759055 Z M7.84738221,13.8348271 L27.5422992,13.8348271 C28.6780199,13.8348271 29.6017914,12.9110968 29.6017914,11.7759055 L29.6017914,2.11957538 C29.6017914,0.984384118 28.6780199,0.0606538726 27.5422992,0.0606538726 L7.84738221,0.0606538726 C6.71166147,0.0606538726 5.78750038,0.984384118 5.78750038,2.11957538 L5.78750038,11.7759055 C5.78750038,12.9110968 6.71166147,13.8348271 7.84738221,13.8348271 L7.84738221,13.8348271 Z" id="Fill-1"></path>
                        <path d="M12.0435489,9.62418265 C11.7828981,8.61399873 10.9728935,7.80437175 9.96223837,7.54384244 L9.96223837,6.35218369 C10.9728935,6.09165438 11.7828981,5.2820274 12.0435489,4.27145405 L23.3462104,4.27145405 C23.6068613,5.28163797 24.4164763,6.09126494 25.4271313,6.35218369 L25.4271313,7.54384244 C24.4164763,7.80437175 23.6068613,8.61399873 23.3462104,9.62418265 L12.0435489,9.62418265 Z M24.6907635,3.55451165 L24.6907635,2.83756924 L10.6989958,2.83756924 L10.6989958,3.55451165 C10.6989958,4.35596057 10.0467843,5.007868 9.24457195,5.007868 L8.52729516,5.007868 L8.52729516,8.88776869 L9.24457195,8.88776869 C10.0467843,8.88776869 10.6989958,9.53967613 10.6989958,10.341125 L10.6989958,11.0584569 L24.6907635,11.0584569 L24.6907635,10.341125 C24.6907635,9.53967613 25.342975,8.88776869 26.1447978,8.88776869 L26.8624642,8.88776869 L26.8624642,5.007868 L26.1447978,5.007868 C25.342975,5.007868 24.6907635,4.35596057 24.6907635,3.55451165 L24.6907635,3.55451165 Z" id="Fill-4"></path>
                        <path d="M17.6946459,5.13182388 C16.6929519,5.13182388 15.8778823,5.94651346 15.8778823,6.94774046 C15.8778823,7.94896747 16.6929519,8.76365705 17.6946459,8.76365705 C18.6963399,8.76365705 19.5117991,7.94896747 19.5117991,6.94774046 C19.5117991,5.94651346 18.6963399,5.13182388 17.6946459,5.13182388" id="Fill-6"></path>
                        <path d="M21.459901,5.77948652 C20.8154818,5.77948652 20.2910632,6.30366059 20.2910632,6.94777941 C20.2910632,7.59189822 20.8154818,8.1160723 21.459901,8.1160723 C22.1043203,8.1160723 22.6287388,7.59189822 22.6287388,6.94777941 C22.6287388,6.30366059 22.1043203,5.77948652 21.459901,5.77948652" id="Fill-8"></path>
                        <path d="M13.9299752,5.77948652 C13.2855559,5.77948652 12.7611374,6.30366059 12.7611374,6.94777941 C12.7611374,7.59189822 13.2855559,8.1160723 13.9299752,8.1160723 C14.5743944,8.1160723 15.098813,7.59189822 15.098813,6.94777941 C15.098813,6.30366059 14.5743944,5.77948652 13.9299752,5.77948652" id="Fill-10"></path>
                        <path d="M1.5584504,16.3466178 C1.5584504,16.0779105 1.77741269,15.8590503 2.04585577,15.8590503 L4.04184112,15.8590503 C4.31028421,15.8590503 4.52924649,16.0779105 4.52924649,16.3466178 L4.52924649,25.6914032 C4.52924649,25.9605 4.31028421,26.1789708 4.04184112,26.1789708 L2.04585577,26.1789708 C1.77741269,26.1789708 1.5584504,25.9605 1.5584504,25.6914032 L1.5584504,16.3466178 Z M10.4673321,19.9480754 L16.0960654,19.9480754 C16.7942512,19.9480754 17.3623063,20.5154763 17.3623063,21.2133366 L17.3623063,21.3663829 L11.020582,21.2662992 C10.8246069,21.2666886 10.6192811,21.3422382 10.4688906,21.4871065 C10.3169417,21.6335326 10.2312269,21.8274692 10.22811,22.0330888 C10.2214866,22.4618522 10.5655145,22.8166239 10.9952572,22.824023 L17.9502318,22.9334531 C18.044518,22.9334531 18.1364666,22.9167076 18.2233502,22.8839954 L27.8370411,20.4562828 C28.2936671,20.3402324 28.7686049,20.5333901 29.0156192,20.9368406 C29.1667889,21.1860764 29.2108152,21.4785391 29.1383472,21.7604871 C29.0658793,22.0436034 28.8862679,22.2788197 28.6326301,22.4240774 L17.0525643,29.0580339 C16.3672358,29.4505803 15.5264518,29.4342242 14.8574869,29.0163648 L6.08769689,23.543302 L6.08769689,17.5628107 L9.11537642,17.5628107 C9.43135223,17.5628107 9.68810694,17.8194457 9.68810694,18.1352742 L9.68810694,19.1692134 C9.68810694,19.5987558 10.0375894,19.9480754 10.4673321,19.9480754 L10.4673321,19.9480754 Z M30.3457567,20.1256559 C29.7418571,19.135333 28.5792531,18.6602272 27.4544415,18.9464589 L18.9188087,21.1062431 C18.8619252,19.5991452 17.6178922,18.3903515 16.0960654,18.3903515 L11.2465573,18.3903515 L11.2465573,18.1352742 C11.2465573,16.9607505 10.290448,16.0050869 9.11537642,16.0050869 L6.04990447,16.0050869 C5.88470873,15.0361826 5.03496364,14.3013264 4.04184112,14.3013264 L2.04585577,14.3013264 C0.917927288,14.3013264 0,15.2188258 0,16.3466178 L0,25.6914032 C0,26.8191953 0.917927288,27.7366946 2.04585577,27.7366946 L4.04184112,27.7366946 C5.1697696,27.7366946 6.08769689,26.8191953 6.08769689,25.6914032 L6.08769689,25.3798585 L14.0322874,30.3377041 C14.6206025,30.7049374 15.2965803,30.8992635 15.9873635,30.8992635 L15.9897011,30.8992635 C16.6317827,30.8992635 17.2676305,30.7302505 17.8278934,30.4093593 L29.4079591,23.7757923 C30.0293912,23.4198524 30.4696535,22.8419369 30.6477064,22.1479709 C30.8257594,21.4551732 30.7190055,20.7366731 30.3457567,20.1256559 L30.3457567,20.1256559 Z" id="Fill-12"></path>
                    </g>
                </g>
            </g>
        </g>
    </g>
</svg>