{
  "banks": [
    {
      "label": "B.O.D.",
      "value": "BOD"
    },
    {
      "label": "BBVA Provincial",
      "value": "Provincial"
    },
    {
      "label": "Banesco",
      "value": "Banesco"
    },
    {
      "label": "100% Banco",
      "value": "100% Banco"
    },
    {
      "label": "Banca Amiga",
      "value": "Banca Amiga"
    },
    {
      "label": "Banco Activo",
      "value": "Banco Activo"
    },
    {
      "label": "Banca Agricola",
      "value": "Banca Agricola"
    },
    {
      "label": "Banco Bicentenario",
      "value": "Banco Bicentenario"
    },
    {
      "label": "Banca Caroni",
      "value": "Banca Caroni"
    },
    {
      "label": "Banco de Venezuela",
      "value": "Banco de Venezuela"
    },
    {
      "label": "Bancaribe",
      "value": "Bancaribe"
    },
    {
      "label": "Banco del Tesoro",
      "value": "Bando del Tesoro"
    },
    {
      "label": "Banco Exterior",
      "value": "Banco Exterior"
    },
    {
      "label": "Banco Internacional de Desarrollo",
      "value": "Bando Internacional de Desarrollo"
    },
    {
      "label": "Banco Mercantil",
      "value": "Mercantil"
    },
    {
      "label": "Banco Nacional de Crédito",
      "value": "Banco Nacional De Credito"
    },
    {
      "label": "Banfanb",
      "value": "Banfanb"
    },
            {
      "label": "Bangente",
      "value": "Bangente"
    },
            {
      "label": "Banplus",
      "value": "Banplus"
    },
            {
      "label": "Citibank",
      "value": "Citibank"
    },
    {
      "label": "Delsur",
      "value": "Delsur"
    },
    {
      "label": "Fondo Comun",
      "value": "Fondo Comun"
    },
    {
      "label": "Mi Banco",
      "value": "Mi Banco"
    },
    {
      "label": "Sofitasa",
      "value": "Sofitasa"
    },
    {
      "label": "Otros",
      "value": "Otros"
    }
  ]
}